InputDelay_tb.vcd
$date today $end
$timescale 1 ns $end
$scope module  $end
$scope module tb $end
$var integer 32 14 data $end
$scope module axprint $end
$var integer 32 11 counter $end
$var integer 32 12 d $end
$scope module ConfigIn $end
$var integer 32 0 data $end
$var integer 32 1 last $end
$var integer 32 2 ready $end
$var integer 32 3 valid $end
$upscope $end
$scope module ax_slave $end
$var integer 32 8 data_internal2 $end
$var integer 32 9 data_internal_isLast2 $end
$var integer 32 a data_internal_isvalid2 $end
$var integer 32 b data_internal_was_read2 $end
$var integer 32 c data_isvalid $end
$scope module rx $end
$var integer 32 d data $end
$var integer 32 e last $end
$var integer 32 f ready $end
$var integer 32 10 valid $end
$upscope $end
$upscope $end
$scope module globals $end
$var integer 32 4 clk $end
$var integer 32 7 rst $end
$scope module reg $end
$var integer 32 5 address $end
$var integer 32 6 value $end
$upscope $end
$upscope $end
$upscope $end
$scope module clkgen $end
$var integer 32 13 clk $end
$upscope $end
$scope module dut $end
$scope module ConfigIn $end
$var integer 32 15 data $end
$var integer 32 16 last $end
$var integer 32 17 ready $end
$var integer 32 18 valid $end
$upscope $end
$scope module ConfigOut $end
$var integer 32 19 data $end
$var integer 32 1a last $end
$var integer 32 1b ready $end
$var integer 32 1c valid $end
$upscope $end
$scope module globals $end
$var integer 32 1d clk $end
$var integer 32 20 rst $end
$scope module reg $end
$var integer 32 1e address $end
$var integer 32 1f value $end
$upscope $end
$upscope $end
$scope module pipe2_2_stream_delay_one $end
$var integer 32 29 clk $end
$scope module Axi_in $end
$var integer 32 21 data $end
$var integer 32 22 last $end
$var integer 32 23 ready $end
$var integer 32 24 valid $end
$upscope $end
$scope module Axi_out $end
$var integer 32 25 data $end
$var integer 32 26 last $end
$var integer 32 27 ready $end
$var integer 32 28 valid $end
$upscope $end
$scope module axMaster $end
$scope module tx $end
$var integer 32 2a data $end
$var integer 32 2b last $end
$var integer 32 2c ready $end
$var integer 32 2d valid $end
$upscope $end
$upscope $end
$scope module axiSalve $end
$var integer 32 2e data_internal2 $end
$var integer 32 2f data_internal_isLast2 $end
$var integer 32 30 data_internal_isvalid2 $end
$var integer 32 31 data_internal_was_read2 $end
$var integer 32 32 data_isvalid $end
$scope module rx $end
$var integer 32 33 data $end
$var integer 32 34 last $end
$var integer 32 35 ready $end
$var integer 32 36 valid $end
$upscope $end
$upscope $end
$upscope $end
$scope module pipe2_3_stream_delay_one $end
$var integer 32 3f clk $end
$scope module Axi_in $end
$var integer 32 37 data $end
$var integer 32 38 last $end
$var integer 32 39 ready $end
$var integer 32 3a valid $end
$upscope $end
$scope module Axi_out $end
$var integer 32 3b data $end
$var integer 32 3c last $end
$var integer 32 3d ready $end
$var integer 32 3e valid $end
$upscope $end
$scope module axMaster $end
$scope module tx $end
$var integer 32 40 data $end
$var integer 32 41 last $end
$var integer 32 42 ready $end
$var integer 32 43 valid $end
$upscope $end
$upscope $end
$scope module axiSalve $end
$var integer 32 44 data_internal2 $end
$var integer 32 45 data_internal_isLast2 $end
$var integer 32 46 data_internal_isvalid2 $end
$var integer 32 47 data_internal_was_read2 $end
$var integer 32 48 data_isvalid $end
$scope module rx $end
$var integer 32 49 data $end
$var integer 32 4a last $end
$var integer 32 4b ready $end
$var integer 32 4c valid $end
$upscope $end
$upscope $end
$upscope $end
$scope module pipe2_4_stream_delay_one $end
$var integer 32 55 clk $end
$scope module Axi_in $end
$var integer 32 4d data $end
$var integer 32 4e last $end
$var integer 32 4f ready $end
$var integer 32 50 valid $end
$upscope $end
$scope module Axi_out $end
$var integer 32 51 data $end
$var integer 32 52 last $end
$var integer 32 53 ready $end
$var integer 32 54 valid $end
$upscope $end
$scope module axMaster $end
$scope module tx $end
$var integer 32 56 data $end
$var integer 32 57 last $end
$var integer 32 58 ready $end
$var integer 32 59 valid $end
$upscope $end
$upscope $end
$scope module axiSalve $end
$var integer 32 5a data_internal2 $end
$var integer 32 5b data_internal_isLast2 $end
$var integer 32 5c data_internal_isvalid2 $end
$var integer 32 5d data_internal_was_read2 $end
$var integer 32 5e data_isvalid $end
$scope module rx $end
$var integer 32 5f data $end
$var integer 32 60 last $end
$var integer 32 61 ready $end
$var integer 32 62 valid $end
$upscope $end
$upscope $end
$upscope $end
$scope module pipe2_5_stream_delay_one $end
$var integer 32 6b clk $end
$scope module Axi_in $end
$var integer 32 63 data $end
$var integer 32 64 last $end
$var integer 32 65 ready $end
$var integer 32 66 valid $end
$upscope $end
$scope module Axi_out $end
$var integer 32 67 data $end
$var integer 32 68 last $end
$var integer 32 69 ready $end
$var integer 32 6a valid $end
$upscope $end
$scope module axMaster $end
$scope module tx $end
$var integer 32 6c data $end
$var integer 32 6d last $end
$var integer 32 6e ready $end
$var integer 32 6f valid $end
$upscope $end
$upscope $end
$scope module axiSalve $end
$var integer 32 70 data_internal2 $end
$var integer 32 71 data_internal_isLast2 $end
$var integer 32 72 data_internal_isvalid2 $end
$var integer 32 73 data_internal_was_read2 $end
$var integer 32 74 data_isvalid $end
$scope module rx $end
$var integer 32 75 data $end
$var integer 32 76 last $end
$var integer 32 77 ready $end
$var integer 32 78 valid $end
$upscope $end
$upscope $end
$upscope $end
$scope module pipe2_6_stream_delay_one $end
$var integer 32 81 clk $end
$scope module Axi_in $end
$var integer 32 79 data $end
$var integer 32 7a last $end
$var integer 32 7b ready $end
$var integer 32 7c valid $end
$upscope $end
$scope module Axi_out $end
$var integer 32 7d data $end
$var integer 32 7e last $end
$var integer 32 7f ready $end
$var integer 32 80 valid $end
$upscope $end
$scope module axMaster $end
$scope module tx $end
$var integer 32 82 data $end
$var integer 32 83 last $end
$var integer 32 84 ready $end
$var integer 32 85 valid $end
$upscope $end
$upscope $end
$scope module axiSalve $end
$var integer 32 86 data_internal2 $end
$var integer 32 87 data_internal_isLast2 $end
$var integer 32 88 data_internal_isvalid2 $end
$var integer 32 89 data_internal_was_read2 $end
$var integer 32 8a data_isvalid $end
$scope module rx $end
$var integer 32 8b data $end
$var integer 32 8c last $end
$var integer 32 8d ready $end
$var integer 32 8e valid $end
$upscope $end
$upscope $end
$upscope $end
$scope module pipe2_7_stream_delay_one $end
$var integer 32 97 clk $end
$scope module Axi_in $end
$var integer 32 8f data $end
$var integer 32 90 last $end
$var integer 32 91 ready $end
$var integer 32 92 valid $end
$upscope $end
$scope module Axi_out $end
$var integer 32 93 data $end
$var integer 32 94 last $end
$var integer 32 95 ready $end
$var integer 32 96 valid $end
$upscope $end
$scope module axMaster $end
$scope module tx $end
$var integer 32 98 data $end
$var integer 32 99 last $end
$var integer 32 9a ready $end
$var integer 32 9b valid $end
$upscope $end
$upscope $end
$scope module axiSalve $end
$var integer 32 9c data_internal2 $end
$var integer 32 9d data_internal_isLast2 $end
$var integer 32 9e data_internal_isvalid2 $end
$var integer 32 9f data_internal_was_read2 $end
$var integer 32 a0 data_isvalid $end
$scope module rx $end
$var integer 32 a1 data $end
$var integer 32 a2 last $end
$var integer 32 a3 ready $end
$var integer 32 a4 valid $end
$upscope $end
$upscope $end
$upscope $end
$upscope $end
$scope module k_globals $end
$var integer 32 a5 clk $end
$var integer 32 a8 rst $end
$scope module reg $end
$var integer 32 a6 address $end
$var integer 32 a7 value $end
$upscope $end
$upscope $end
$scope module mast $end
$scope module tx $end
$var integer 32 a9 data $end
$var integer 32 aa last $end
$var integer 32 ab ready $end
$var integer 32 ac valid $end
$upscope $end
$upscope $end
$upscope $end
$upscope $end
$enddefinitions $end
#0
$dumpvars
b0 0
b0 1
b0 2
b0 3
b0 4
b0 5
b0 6
b0 7
b0 8
b0 9
b0 a
b0 b
b0 c
b0 d
b0 e
b0 f
b0 10
b0 11
b0 12
b0 13
b101 14
b0 15
b0 16
b0 17
b0 18
b0 19
b0 1a
b0 1b
b0 1c
b0 1d
b0 1e
b0 1f
b0 20
b0 21
b0 22
b0 23
b0 24
b0 25
b0 26
b0 27
b0 28
b0 29
b0 2a
b0 2b
b0 2c
b0 2d
b0 2e
b0 2f
b0 30
b0 31
b0 32
b0 33
b0 34
b0 35
b0 36
b0 37
b0 38
b0 39
b0 3a
b0 3b
b0 3c
b0 3d
b0 3e
b0 3f
b0 40
b0 41
b0 42
b0 43
b0 44
b0 45
b0 46
b0 47
b0 48
b0 49
b0 4a
b0 4b
b0 4c
b0 4d
b0 4e
b0 4f
b0 50
b0 51
b0 52
b0 53
b0 54
b0 55
b0 56
b0 57
b0 58
b0 59
b0 5a
b0 5b
b0 5c
b0 5d
b0 5e
b0 5f
b0 60
b0 61
b0 62
b0 63
b0 64
b0 65
b0 66
b0 67
b0 68
b0 69
b0 6a
b0 6b
b0 6c
b0 6d
b0 6e
b0 6f
b0 70
b0 71
b0 72
b0 73
b0 74
b0 75
b0 76
b0 77
b0 78
b0 79
b0 7a
b0 7b
b0 7c
b0 7d
b0 7e
b0 7f
b0 80
b0 81
b0 82
b0 83
b0 84
b0 85
b0 86
b0 87
b0 88
b0 89
b0 8a
b0 8b
b0 8c
b0 8d
b0 8e
b0 8f
b0 90
b0 91
b0 92
b0 93
b0 94
b0 95
b0 96
b0 97
b0 98
b0 99
b0 9a
b0 9b
b0 9c
b0 9d
b0 9e
b0 9f
b0 a0
b0 a1
b0 a2
b0 a3
b0 a4
b0 a5
b0 a6
b0 a7
b0 a8
b0 a9
b0 aa
b0 ab
b0 ac
$end
#30
b1 13
b1 a5
b1 1d
b1 4
b1 29
b1 3f
b1 55
b1 6b
b1 81
b1 97
b1 35
b1 4b
b1 61
b1 77
b1 a3
b1 11
b110 14
b1 8d
b1 f
b1 ac
b101 a9
b1 2
b1 1b
b1 95
b1 91
b1 7f
b101 15
b101 21
b1 39
b1 27
b1 7b
b1 69
b1 65
b1 53
b1 4f
b1 3d
b1 18
b1 24
b1 23
b1 17
b101 33
b1 84
b1 6e
b1 58
b1 42
b1 36
b1 ab
b1 9a
b1 2c
#40
b0 13
b0 a5
b0 1d
b0 4
b0 29
b0 3f
b0 55
b0 6b
b0 81
b0 97
#50
b1 13
b1 a5
b1 1d
b1 4
b1 29
b1 3f
b1 55
b1 6b
b1 81
b1 97
b110 a9
b111 14
b101 2a
b101 2e
b10 11
b1 31
b1 2d
b1 28
b1 3a
b110 15
b110 21
b101 25
b101 37
b110 33
b101 49
b1 4c
#60
b0 13
b0 a5
b0 1d
b0 4
b0 29
b0 3f
b0 55
b0 6b
b0 81
b0 97
#70
b1 13
b1 a5
b1 1d
b1 4
b1 29
b1 3f
b1 55
b1 6b
b1 81
b1 97
b1 43
b101 40
b111 a9
b1 47
b11 11
b101 44
b110 2e
b1000 14
b110 2a
b111 15
b111 21
b101 3b
b101 4d
b110 25
b110 37
b1 3e
b1 50
b111 33
b1 62
b110 49
b101 5f
#80
b0 13
b0 a5
b0 1d
b0 4
b0 29
b0 3f
b0 55
b0 6b
b0 81
b0 97
#90
b1 13
b1 a5
b1 1d
b1 4
b1 29
b1 3f
b1 55
b1 6b
b1 81
b1 97
b1 59
b101 56
b111 2e
b1 5d
b1000 a9
b111 2a
b110 44
b1001 14
b110 40
b100 11
b101 5a
b110 3b
b110 4d
b110 5f
b1 54
b1 66
b101 51
b101 63
b1000 15
b1000 21
b111 25
b111 37
b1000 33
b111 49
b101 75
b1 78
#100
b0 13
b0 a5
b0 1d
b0 4
b0 29
b0 3f
b0 55
b0 6b
b0 81
b0 97
#110
b1 13
b1 a5
b1 1d
b1 4
b1 29
b1 3f
b1 55
b1 6b
b1 81
b1 97
b110 5a
b1000 2e
b110 56
b1001 a9
b1000 2a
b111 44
b1010 14
b101 70
b111 40
b1 6f
b101 11
b101 6c
b1 73
b111 3b
b111 4d
b111 5f
b1 6a
b1 7c
b101 67
b101 79
b110 51
b110 63
b1001 15
b1001 21
b1000 25
b1000 37
b1001 33
b1000 49
b101 8b
b110 75
b1 8e
#120
b0 13
b0 a5
b0 1d
b0 4
b0 29
b0 3f
b0 55
b0 6b
b0 81
b0 97
#130
b1 13
b1 a5
b1 1d
b1 4
b1 29
b1 3f
b1 55
b1 6b
b1 81
b1 97
b111 5a
b1001 2e
b111 56
b110 70
b1001 2a
b1010 a9
b110 6c
b1011 14
b1000 44
b101 86
b1000 40
b1 85
b101 82
b110 11
b1 89
b1000 3b
b1000 4d
b1 80
b1 92
b101 7d
b101 8f
b1000 5f
b110 67
b110 79
b111 51
b111 63
b1010 15
b1010 21
b110 8b
b1001 25
b1001 37
b111 75
b1010 33
b101 a1
b1 a4
b1001 49
#140
b0 13
b0 a5
b0 1d
b0 4
b0 29
b0 3f
b0 55
b0 6b
b0 81
b0 97
#150
b1 13
b1 a5
b1 1d
b1 4
b1 29
b1 3f
b1 55
b1 6b
b1 81
b1 97
b1000 5a
b1010 2e
b1000 56
b110 86
b1011 a9
b1010 2a
b110 82
b1100 14
b101 9c
b1001 44
b1 9b
b1001 40
b111 70
b101 98
b1 9f
b111 11
b111 6c
b1001 3b
b1001 4d
b110 7d
b110 8f
b1001 5f
b110 a1
b111 67
b111 79
b101 93
b101 19
b101 0
b1000 51
b1000 63
b1 96
b1 1c
b1 3
b111 8b
b1011 15
b1011 21
b1010 25
b1010 37
b1000 75
b1 10
b101 d
b1011 33
b1010 49
#160
b0 13
b0 a5
b0 1d
b0 4
b0 29
b0 3f
b0 55
b0 6b
b0 81
b0 97
#170
b1 13
b1 a5
b1 1d
b1 4
b1 29
b1 3f
b1 55
b1 6b
b1 81
b1 97
b1000 11
b1000 70
b1001 5a
b110 9c
b101 12
b1 b
b1000 6c
b1001 56
b110 98
b1100 a9
b1101 14
b1011 2e
b1010 44
b111 86
b1011 2a
b1010 40
b111 82
b101 8
b1010 3b
b1010 4d
b111 7d
b111 8f
b1010 5f
b111 a1
b1000 67
b1000 79
b110 93
b110 19
b110 0
b1001 51
b1001 63
b1100 15
b1100 21
b1000 8b
b1011 25
b1011 37
b1001 75
b110 d
b1100 33
b1011 49
#180
b0 13
b0 a5
b0 1d
b0 4
b0 29
b0 3f
b0 55
b0 6b
b0 81
b0 97
#190
b1 13
b1 a5
b1 1d
b1 4
b1 29
b1 3f
b1 55
b1 6b
b1 81
b1 97
b1010 5a
b1001 70
b111 9c
b1010 56
b1001 6c
b111 98
b1101 a9
b1011 44
b1011 40
b1100 2e
b1000 86
b1110 14
b1100 2a
b1000 82
b1001 11
b110 12
b110 8
b1011 3b
b1011 4d
b1000 7d
b1000 8f
b1100 25
b1100 37
b1011 5f
b1000 a1
b1001 67
b1001 79
b1010 51
b1010 63
b1101 15
b1101 21
b1100 49
b1001 8b
b111 93
b111 19
b111 0
b1010 75
b111 d
b1101 33
#200
b0 13
b0 a5
b0 1d
b0 4
b0 29
b0 3f
b0 55
b0 6b
b0 81
b0 97
#210
b1 13
b1 a5
b1 1d
b1 4
b1 29
b1 3f
b1 55
b1 6b
b1 81
b1 97
b1010 70
b1011 5a
b1000 9c
b1010 11
b111 12
b1010 6c
b1011 56
b1000 98
b1110 a9
b1101 2e
b1100 44
b1001 86
b1111 14
b1101 2a
b1100 40
b1001 82
b111 8
b1100 3b
b1100 4d
b1001 7d
b1001 8f
b1100 5f
b1001 a1
b1010 67
b1010 79
b1000 93
b1000 19
b1000 0
b1011 51
b1011 63
b1110 15
b1110 21
b1010 8b
b1101 25
b1101 37
b1011 75
b1000 d
b1110 33
b1101 49
#220
b0 13
b0 a5
b0 1d
b0 4
b0 29
b0 3f
b0 55
b0 6b
b0 81
b0 97
#230
b1 13
b1 a5
b1 1d
b1 4
b1 29
b1 3f
b1 55
b1 6b
b1 81
b1 97
b1100 5a
b1011 70
b1001 9c
b1100 56
b1011 6c
b1001 98
b1111 a9
b1101 44
b1101 40
b1110 2e
b1010 86
b10000 14
b1110 2a
b1010 82
b1011 11
b1000 12
b1000 8
b1101 3b
b1101 4d
b1010 7d
b1010 8f
b1110 25
b1110 37
b1101 5f
b1010 a1
b1011 67
b1011 79
b1100 51
b1100 63
b1111 15
b1111 21
b1110 49
b1011 8b
b1001 93
b1001 19
b1001 0
b1100 75
b1001 d
b1111 33
#240
b0 13
b0 a5
b0 1d
b0 4
b0 29
b0 3f
b0 55
b0 6b
b0 81
b0 97
#250
b1 13
b1 a5
b1 1d
b1 4
b1 29
b1 3f
b1 55
b1 6b
b1 81
b1 97
b1100 70
b1101 5a
b1010 9c
b1100 11
b1001 12
b1100 6c
b1101 56
b1010 98
b10000 a9
b1111 2e
b1110 44
b1011 86
b10001 14
b1111 2a
b1110 40
b1011 82
b1001 8
b1110 3b
b1110 4d
b1011 7d
b1011 8f
b1110 5f
b1011 a1
b1100 67
b1100 79
b1010 93
b1010 19
b1010 0
b1101 51
b1101 63
b10000 15
b10000 21
b1100 8b
b1111 25
b1111 37
b1101 75
b1010 d
b10000 33
b1111 49
#260
b0 13
b0 a5
b0 1d
b0 4
b0 29
b0 3f
b0 55
b0 6b
b0 81
b0 97
#270
b1 13
b1 a5
b1 1d
b1 4
b1 29
b1 3f
b1 55
b1 6b
b1 81
b1 97
b1110 5a
b1101 70
b1011 9c
b1110 56
b1101 6c
b1011 98
b10001 a9
b1111 44
b1111 40
b10000 2e
b1100 86
b10010 14
b10000 2a
b1100 82
b1101 11
b1010 12
b1010 8
b1111 3b
b1111 4d
b1100 7d
b1100 8f
b10000 25
b10000 37
b1111 5f
b1100 a1
b1101 67
b1101 79
b1110 51
b1110 63
b10001 15
b10001 21
b10000 49
b1101 8b
b1011 93
b1011 19
b1011 0
b1110 75
b1011 d
b10001 33
#280
b0 13
b0 a5
b0 1d
b0 4
b0 29
b0 3f
b0 55
b0 6b
b0 81
b0 97
#290
b1 13
b1 a5
b1 1d
b1 4
b1 29
b1 3f
b1 55
b1 6b
b1 81
b1 97
b1110 70
b1111 5a
b1100 9c
b1110 11
b1011 12
b1110 6c
b1111 56
b1100 98
b10010 a9
b10001 2e
b10000 44
b1101 86
b10011 14
b10001 2a
b10000 40
b1101 82
b1011 8
b10000 3b
b10000 4d
b1101 7d
b1101 8f
b10000 5f
b1101 a1
b1110 67
b1110 79
b1100 93
b1100 19
b1100 0
b1111 51
b1111 63
b10010 15
b10010 21
b1110 8b
b10001 25
b10001 37
b1111 75
b1100 d
b10010 33
b10001 49
#300
b0 13
b0 a5
b0 1d
b0 4
b0 29
b0 3f
b0 55
b0 6b
b0 81
b0 97
#310
b1 13
b1 a5
b1 1d
b1 4
b1 29
b1 3f
b1 55
b1 6b
b1 81
b1 97
b10000 5a
b1111 70
b1101 9c
b10000 56
b1111 6c
b1101 98
b10011 a9
b10001 44
b10001 40
b10010 2e
b1110 86
b10100 14
b10010 2a
b1100 8
b1110 82
b1111 11
b1100 12
b10001 3b
b10001 4d
b1110 7d
b1110 8f
b10010 25
b10010 37
b10001 5f
b1110 a1
b1111 67
b1111 79
b10000 51
b10000 63
b10011 15
b10011 21
b10010 49
b1111 8b
b1101 93
b1101 19
b1101 0
b10000 75
b1101 d
b10011 33
#320
b0 13
b0 a5
b0 1d
b0 4
b0 29
b0 3f
b0 55
b0 6b
b0 81
b0 97
#330
b1 13
b1 a5
b1 1d
b1 4
b1 29
b1 3f
b1 55
b1 6b
b1 81
b1 97
b10000 70
b10001 5a
b1110 9c
b10000 11
b1101 12
b10000 6c
b10001 56
b1110 98
b10100 a9
b10011 2e
b10010 44
b1111 86
b10101 14
b10011 2a
b10010 40
b1111 82
b1101 8
b10010 3b
b10010 4d
b1111 7d
b1111 8f
b10010 5f
b1111 a1
b10000 67
b10000 79
b1110 93
b1110 19
b1110 0
b10001 51
b10001 63
b10100 15
b10100 21
b10000 8b
b10011 25
b10011 37
b10001 75
b1110 d
b10100 33
b10011 49
#340
b0 13
b0 a5
b0 1d
b0 4
b0 29
b0 3f
b0 55
b0 6b
b0 81
b0 97
#350
b1 13
b1 a5
b1 1d
b1 4
b1 29
b1 3f
b1 55
b1 6b
b1 81
b1 97
b10001 70
b10010 56
b1111 9c
b10001 6c
b1111 98
b10011 44
b10101 a9
b10011 40
b10100 2e
b10000 86
b10110 14
b10100 2a
b1110 8
b10000 82
b0 11
b1110 12
b10010 5a
b10011 3b
b10011 4d
b10000 7d
b10000 8f
b10100 25
b10100 37
b10011 5f
b10000 a1
b10001 67
b10001 79
b10010 51
b10010 63
b10100 49
b10101 15
b10101 21
b10001 8b
b1111 93
b1111 19
b1111 0
b10010 75
b1111 d
b10101 33
#360
b0 13
b0 a5
b0 1d
b0 4
b0 29
b0 3f
b0 55
b0 6b
b0 81
b0 97
#370
b1 13
b1 a5
b1 1d
b1 4
b1 29
b1 3f
b1 55
b1 6b
b1 81
b1 97
b10010 70
b10011 5a
b10000 9c
b1 11
b1111 12
b10010 6c
b10011 56
b10000 98
b10110 a9
b10101 2e
b10100 44
b10001 86
b10111 14
b10101 2a
b10100 40
b10001 82
b1111 8
b10100 3b
b10100 4d
b10001 7d
b10001 8f
b10100 5f
b10001 a1
b10010 67
b10010 79
b10000 93
b10000 19
b10000 0
b10011 51
b10011 63
b10110 15
b10110 21
b10010 8b
b10101 25
b10101 37
b10011 75
b10000 d
b10110 33
b10101 49
#380
b0 13
b0 a5
b0 1d
b0 4
b0 29
b0 3f
b0 55
b0 6b
b0 81
b0 97
#390
b1 13
b1 a5
b1 1d
b1 4
b1 29
b1 3f
b1 55
b1 6b
b1 81
b1 97
b10011 70
b10100 56
b10001 9c
b10011 6c
b10001 98
b10101 44
b10111 a9
b10101 40
b10110 2e
b10010 86
b11000 14
b10110 2a
b10000 8
b10010 82
b10 11
b10000 12
b10100 5a
b10101 3b
b10101 4d
b10010 7d
b10010 8f
b10110 25
b10110 37
b10101 5f
b10010 a1
b10011 67
b10011 79
b10100 51
b10100 63
b10110 49
b10111 15
b10111 21
b10011 8b
b10001 93
b10001 19
b10001 0
b10100 75
b10001 d
b10111 33
#400
b0 13
b0 a5
b0 1d
b0 4
b0 29
b0 3f
b0 55
b0 6b
b0 81
b0 97
#410
b1 13
b1 a5
b1 1d
b1 4
b1 29
b1 3f
b1 55
b1 6b
b1 81
b1 97
b10100 70
b10101 5a
b10010 9c
b11 11
b10001 12
b10100 6c
b10101 56
b10010 98
b11000 a9
b10111 2e
b10110 44
b10011 86
b11001 14
b10111 2a
b10110 40
b10011 82
b10001 8
b10110 3b
b10110 4d
b10011 7d
b10011 8f
b10110 5f
b10011 a1
b10100 67
b10100 79
b10010 93
b10010 19
b10010 0
b10101 51
b10101 63
b11000 15
b11000 21
b10100 8b
b10111 25
b10111 37
b10101 75
b10010 d
b11000 33
b10111 49
#420
b0 13
b0 a5
b0 1d
b0 4
b0 29
b0 3f
b0 55
b0 6b
b0 81
b0 97
#430
b1 13
b1 a5
b1 1d
b1 4
b1 29
b1 3f
b1 55
b1 6b
b1 81
b1 97
b10101 70
b10110 56
b10011 9c
b10101 6c
b10011 98
b10111 44
b11001 a9
b10111 40
b11000 2e
b10100 86
b11010 14
b11000 2a
b10010 8
b10100 82
b100 11
b10010 12
b10110 5a
b10111 3b
b10111 4d
b10100 7d
b10100 8f
b11000 25
b11000 37
b10111 5f
b10100 a1
b10101 67
b10101 79
b10110 51
b10110 63
b11000 49
b11001 15
b11001 21
b10101 8b
b10011 93
b10011 19
b10011 0
b10110 75
b10011 d
b11001 33
#440
b0 13
b0 a5
b0 1d
b0 4
b0 29
b0 3f
b0 55
b0 6b
b0 81
b0 97
#450
b1 13
b1 a5
b1 1d
b1 4
b1 29
b1 3f
b1 55
b1 6b
b1 81
b1 97
b10110 70
b10111 5a
b10100 9c
b101 11
b10011 12
b10110 6c
b10111 56
b10100 98
b11010 a9
b11001 2e
b11000 44
b10101 86
b11011 14
b11001 2a
b11000 40
b10101 82
b10011 8
b11000 3b
b11000 4d
b10101 7d
b10101 8f
b11000 5f
b10101 a1
b10110 67
b10110 79
b10100 93
b10100 19
b10100 0
b10111 51
b10111 63
b11010 15
b11010 21
b10110 8b
b11001 25
b11001 37
b10111 75
b10100 d
b11010 33
b11001 49
#460
b0 13
b0 a5
b0 1d
b0 4
b0 29
b0 3f
b0 55
b0 6b
b0 81
b0 97
#470
b1 13
b1 a5
b1 1d
b1 4
b1 29
b1 3f
b1 55
b1 6b
b1 81
b1 97
b11000 5a
b10111 70
b10101 9c
b11000 56
b10111 6c
b10101 98
b11001 44
b11011 a9
b11001 40
b11010 2e
b10110 86
b11100 14
b11010 2a
b10100 8
b10110 82
b110 11
b10100 12
b11001 3b
b11001 4d
b10110 7d
b10110 8f
b11001 5f
b10110 a1
b10111 67
b10111 79
b10101 93
b10101 19
b10101 0
b11000 51
b11000 63
b11011 15
b11011 21
b10111 8b
b11010 25
b11010 37
b11000 75
b10101 d
b11011 33
b11010 49
#480
b0 13
b0 a5
b0 1d
b0 4
b0 29
b0 3f
b0 55
b0 6b
b0 81
b0 97
#490
b1 13
b1 a5
b1 1d
b1 4
b1 29
b1 3f
b1 55
b1 6b
b1 81
b1 97
b11000 70
b11001 5a
b10110 9c
b111 11
b10101 12
b11000 6c
b11001 56
b10110 98
b11100 a9
b11011 2e
b11010 44
b10111 86
b11101 14
b11011 2a
b11010 40
b10111 82
b10101 8
b11010 3b
b11010 4d
b10111 7d
b10111 8f
b11010 5f
b10111 a1
b11000 67
b11000 79
b10110 93
b10110 19
b10110 0
b11001 51
b11001 63
b11100 15
b11100 21
b11000 8b
b11011 25
b11011 37
b11001 75
b10110 d
b11100 33
b11011 49
#500
b0 13
b0 a5
b0 1d
b0 4
b0 29
b0 3f
b0 55
b0 6b
b0 81
b0 97
#510
b1 13
b1 a5
b1 1d
b1 4
b1 29
b1 3f
b1 55
b1 6b
b1 81
b1 97
b11010 5a
b11001 70
b10111 9c
b11010 56
b11001 6c
b10111 98
b11011 44
b11101 a9
b11011 40
b11100 2e
b11000 86
b11110 14
b11100 2a
b10110 8
b11000 82
b1000 11
b10110 12
b11011 3b
b11011 4d
b11000 7d
b11000 8f
b11011 5f
b11000 a1
b11001 67
b11001 79
b10111 93
b10111 19
b10111 0
b11010 51
b11010 63
b11101 15
b11101 21
b11001 8b
b11100 25
b11100 37
b11010 75
b10111 d
b11101 33
b11100 49
#520
b0 13
b0 a5
b0 1d
b0 4
b0 29
b0 3f
b0 55
b0 6b
b0 81
b0 97
#530
b1 13
b1 a5
b1 1d
b1 4
b1 29
b1 3f
b1 55
b1 6b
b1 81
b1 97
b11000 9c
b11011 5a
b1001 11
b11000 98
b10111 12
b11011 56
b11110 a9
b11001 86
b10111 8
b11001 82
b11101 2e
b11100 44
b11111 14
b11101 2a
b11100 40
b11010 70
b11010 6c
b11100 3b
b11100 4d
b11001 7d
b11001 8f
b11101 25
b11101 37
b11100 5f
b11001 a1
b11010 67
b11010 79
b11011 51
b11011 63
b11110 15
b11110 21
b11010 8b
b11101 49
b11000 93
b11000 19
b11000 0
b11011 75
b11000 d
b11110 33
#540
b0 13
b0 a5
b0 1d
b0 4
b0 29
b0 3f
b0 55
b0 6b
b0 81
b0 97
#550
b1 13
b1 a5
b1 1d
b1 4
b1 29
b1 3f
b1 55
b1 6b
b1 81
b1 97
b11100 5a
b11011 70
b11001 9c
b11100 56
b11011 6c
b11001 98
b11101 44
b11111 a9
b11101 40
b1010 11
b11000 12
b11010 86
b100000 14
b11110 2e
b11010 82
b11110 2a
b11000 8
b11101 3b
b11101 4d
b11010 7d
b11010 8f
b11110 25
b11110 37
b11101 5f
b11010 a1
b11011 67
b11011 79
b11100 51
b11100 63
b11110 49
b11111 15
b11111 21
b11011 8b
b11001 93
b11001 19
b11001 0
b11100 75
b11001 d
b11111 33
#560
b0 13
b0 a5
b0 1d
b0 4
b0 29
b0 3f
b0 55
b0 6b
b0 81
b0 97
#570
b1 13
b1 a5
b1 1d
b1 4
b1 29
b1 3f
b1 55
b1 6b
b1 81
b1 97
b11100 70
b11101 5a
b11010 9c
b1011 11
b11001 12
b11100 6c
b11101 56
b11010 98
b100000 a9
b100001 14
b11111 2e
b11110 44
b11011 86
b11111 2a
b11110 40
b11011 82
b11001 8
b11110 3b
b11110 4d
b11011 7d
b11011 8f
b11111 25
b11111 37
b11110 5f
b11011 a1
b11100 67
b11100 79
b11101 51
b11101 63
b100000 15
b100000 21
b11111 49
b11100 8b
b11010 93
b11010 19
b11010 0
b11101 75
b11010 d
b100000 33
#580
b0 13
b0 a5
b0 1d
b0 4
b0 29
b0 3f
b0 55
b0 6b
b0 81
b0 97
#590
b1 13
b1 a5
b1 1d
b1 4
b1 29
b1 3f
b1 55
b1 6b
b1 81
b1 97
b11110 5a
b11101 70
b11011 9c
b11110 56
b11101 6c
b11011 98
b100001 a9
b11111 44
b100000 2e
b11100 86
b100010 14
b100000 2a
b11010 8
b11100 82
b1100 11
b11010 12
b11111 40
b11111 3b
b11111 4d
b11100 7d
b11100 8f
b11111 5f
b11100 a1
b11101 67
b11101 79
b11011 93
b11011 19
b11011 0
b11110 51
b11110 63
b100001 15
b100001 21
b11101 8b
b100000 25
b100000 37
b11110 75
b11011 d
b100001 33
b100000 49
#600
b0 13
b0 a5
b0 1d
b0 4
b0 29
b0 3f
b0 55
b0 6b
b0 81
b0 97
#610
b1 13
b1 a5
b1 1d
b1 4
b1 29
b1 3f
b1 55
b1 6b
b1 81
b1 97
b11110 70
b11111 5a
b11100 9c
b1101 11
b11011 12
b11110 6c
b11111 56
b11100 98
b100010 a9
b100001 2e
b100000 44
b11101 86
b100011 14
b100001 2a
b100000 40
b11101 82
b11011 8
b100000 3b
b100000 4d
b11101 7d
b11101 8f
b100000 5f
b11101 a1
b11110 67
b11110 79
b11100 93
b11100 19
b11100 0
b11111 51
b11111 63
b100010 15
b100010 21
b11110 8b
b100001 25
b100001 37
b11111 75
b11100 d
b100010 33
b100001 49
#620
b0 13
b0 a5
b0 1d
b0 4
b0 29
b0 3f
b0 55
b0 6b
b0 81
b0 97
