optional_t.vcd
$date today $end
$timescale 1 ns $end
$scope module  $end
$scope module tb1 $end
$var integer 32 15 data $end
$var integer 32 16 data2 $end
$scope module clkgen $end
$var integer 32 0 clk $end
$upscope $end
$scope module cnt $end
$var integer 32 5 clk $end
$var integer 32 6 data $end
$var integer 32 7 data2 $end
$scope module Data_out $end
$var integer 32 1 data $end
$var integer 32 2 last $end
$var integer 32 3 ready $end
$var integer 32 4 valid $end
$upscope $end
$scope module data_out $end
$scope module tx $end
$var integer 32 8 data $end
$var integer 32 9 last $end
$var integer 32 a ready $end
$var integer 32 b valid $end
$upscope $end
$upscope $end
$upscope $end
$scope module cnt_out $end
$var integer 32 c data_internal2 $end
$var integer 32 d data_internal_isLast2 $end
$var integer 32 e data_internal_isvalid2 $end
$var integer 32 f data_internal_was_read2 $end
$var integer 32 10 data_isvalid $end
$scope module rx $end
$var integer 32 11 data $end
$var integer 32 12 last $end
$var integer 32 13 ready $end
$var integer 32 14 valid $end
$upscope $end
$upscope $end
$scope module opt_data $end
$var integer 32 17 data $end
$var integer 32 18 valid $end
$upscope $end
$upscope $end
$upscope $end
$enddefinitions $end
#0
$dumpvars
b0 0
b0 1
b0 2
b0 3
b0 4
b0 5
b0 6
b0 7
b0 8
b0 9
b0 a
b0 b
b0 c
b0 d
b0 e
b0 f
b0 10
b0 11
b0 12
b0 13
b0 14
b0 15
b0 16
b0 17
b0 18
$end
#30
b1 0
b1 5
b1 13
b1 6
b1 3
b1 a
#40
b0 0
b0 5
#50
b1 0
b1 5
b10 6
#60
b0 0
b0 5
#70
b1 0
b1 5
b11 6
#80
b0 0
b0 5
#90
b1 0
b1 5
b100 6
#100
b0 0
b0 5
#110
b1 0
b1 5
b101 6
#120
b0 0
b0 5
#130
b1 0
b1 5
b110 6
#140
b0 0
b0 5
#150
b1 0
b1 5
b111 6
#160
b0 0
b0 5
#170
b1 0
b1 5
b1000 6
#180
b0 0
b0 5
#190
b1 0
b1 5
b1001 6
#200
b0 0
b0 5
#210
b1 0
b1 5
b1010 6
#220
b0 0
b0 5
#230
b1 0
b1 5
b1011 6
#240
b0 0
b0 5
#250
b1 0
b1 5
b1 7
b1 b
b0 6
b1 4
b1 14
#260
b0 0
b0 5
#270
b1 0
b1 5
b1 6
b1 f
b0 b
b1 18
b0 4
b0 14
#280
b0 0
b0 5
#290
b1 0
b1 5
b10 6
b0 f
b0 18
#300
b0 0
b0 5
#310
b1 0
b1 5
b11 6
#320
b0 0
b0 5
#330
b1 0
b1 5
b100 6
#340
b0 0
b0 5
#350
b1 0
b1 5
b101 6
#360
b0 0
b0 5
#370
b1 0
b1 5
b110 6
#380
b0 0
b0 5
#390
b1 0
b1 5
b111 6
#400
b0 0
b0 5
#410
b1 0
b1 5
b1000 6
#420
b0 0
b0 5
#430
b1 0
b1 5
b1001 6
#440
b0 0
b0 5
#450
b1 0
b1 5
b1010 6
#460
b0 0
b0 5
#470
b1 0
b1 5
b1011 6
#480
b0 0
b0 5
#490
b1 0
b1 5
b1 8
b1 b
b0 6
b10 7
b1 4
b1 1
b1 11
b1 14
#500
b0 0
b0 5
#510
b1 0
b1 5
b1 f
b1 18
b1 c
b1 17
b0 b
b1 15
b1 6
b0 4
b0 14
#520
b0 0
b0 5
#530
b1 0
b1 5
b0 15
b0 18
b10 6
b0 f
#540
b0 0
b0 5
#550
b1 0
b1 5
b11 6
#560
b0 0
b0 5
#570
b1 0
b1 5
b100 6
#580
b0 0
b0 5
#590
b1 0
b1 5
b101 6
#600
b0 0
b0 5
#610
b1 0
b1 5
b110 6
#620
b0 0
b0 5
#630
b1 0
b1 5
b111 6
#640
b0 0
b0 5
#650
b1 0
b1 5
b1000 6
#660
b0 0
b0 5
#670
b1 0
b1 5
b1001 6
#680
b0 0
b0 5
#690
b1 0
b1 5
b1010 6
#700
b0 0
b0 5
#710
b1 0
b1 5
b1011 6
#720
b0 0
b0 5
#730
b1 0
b1 5
b10 8
b11 7
b0 6
b1 b
b1 4
b10 1
b10 11
b1 14
#740
b0 0
b0 5
#750
b1 0
b1 5
b10 c
b10 15
b1 f
b1 18
b10 17
b0 b
b1 6
b0 4
b0 14
#760
b0 0
b0 5
#770
b1 0
b1 5
b0 15
b0 18
b10 6
b0 f
#780
b0 0
b0 5
#790
b1 0
b1 5
b11 6
#800
b0 0
b0 5
#810
b1 0
b1 5
b100 6
#820
b0 0
b0 5
#830
b1 0
b1 5
b101 6
#840
b0 0
b0 5
#850
b1 0
b1 5
b110 6
#860
b0 0
b0 5
#870
b1 0
b1 5
b111 6
#880
b0 0
b0 5
#890
b1 0
b1 5
b1000 6
#900
b0 0
b0 5
#910
b1 0
b1 5
b1001 6
#920
b0 0
b0 5
#930
b1 0
b1 5
b1010 6
#940
b0 0
b0 5
#950
b1 0
b1 5
b1011 6
#960
b0 0
b0 5
#970
b1 0
b1 5
b11 8
b100 7
b0 6
b1 b
b1 4
b11 1
b11 11
b1 14
#980
b0 0
b0 5
#990
b1 0
b1 5
b11 15
b1 f
b1 18
b11 17
b0 b
b11 c
b1 6
b0 4
b0 14
#1000
b0 0
b0 5
#1010
b1 0
b1 5
b0 15
b0 18
b10 6
b0 f
#1020
b0 0
b0 5
#1030
b1 0
b1 5
b11 6
#1040
b0 0
b0 5
#1050
b1 0
b1 5
b100 6
#1060
b0 0
b0 5
#1070
b1 0
b1 5
b101 6
#1080
b0 0
b0 5
#1090
b1 0
b1 5
b110 6
#1100
b0 0
b0 5
#1110
b1 0
b1 5
b111 6
#1120
b0 0
b0 5
#1130
b1 0
b1 5
b1000 6
#1140
b0 0
b0 5
#1150
b1 0
b1 5
b1001 6
#1160
b0 0
b0 5
#1170
b1 0
b1 5
b1010 6
#1180
b0 0
b0 5
#1190
b1 0
b1 5
b1011 6
#1200
b0 0
b0 5
#1210
b1 0
b1 5
b100 8
b101 7
b0 6
b1 b
b1 4
b100 1
b100 11
b1 14
#1220
b0 0
b0 5
#1230
b1 0
b1 5
b100 15
b1 f
b1 18
b100 17
b0 b
b100 c
b1 6
b0 4
b0 14
#1240
b0 0
b0 5
#1250
b1 0
b1 5
b0 15
b0 18
b10 6
b0 f
#1260
b0 0
b0 5
#1270
b1 0
b1 5
b11 6
#1280
b0 0
b0 5
#1290
b1 0
b1 5
b100 6
#1300
b0 0
b0 5
#1310
b1 0
b1 5
b101 6
#1320
b0 0
b0 5
#1330
b1 0
b1 5
b110 6
#1340
b0 0
b0 5
#1350
b1 0
b1 5
b111 6
#1360
b0 0
b0 5
#1370
b1 0
b1 5
b1000 6
#1380
b0 0
b0 5
#1390
b1 0
b1 5
b1001 6
#1400
b0 0
b0 5
#1410
b1 0
b1 5
b1010 6
#1420
b0 0
b0 5
#1430
b1 0
b1 5
b1011 6
#1440
b0 0
b0 5
#1450
b1 0
b1 5
b101 8
b110 7
b0 6
b1 b
b1 4
b101 1
b101 11
b1 14
#1460
b0 0
b0 5
#1470
b1 0
b1 5
b101 15
b1 f
b1 18
b101 17
b101 c
b0 b
b1 6
b0 4
b0 14
#1480
b0 0
b0 5
#1490
b1 0
b1 5
b0 15
b0 18
b10 6
b0 f
#1500
b0 0
b0 5
#1510
b1 0
b1 5
b11 6
#1520
b0 0
b0 5
#1530
b1 0
b1 5
b100 6
#1540
b0 0
b0 5
#1550
b1 0
b1 5
b101 6
#1560
b0 0
b0 5
#1570
b1 0
b1 5
b110 6
#1580
b0 0
b0 5
#1590
b1 0
b1 5
b111 6
#1600
b0 0
b0 5
#1610
b1 0
b1 5
b1000 6
#1620
b0 0
b0 5
#1630
b1 0
b1 5
b1001 6
#1640
b0 0
b0 5
#1650
b1 0
b1 5
b1010 6
#1660
b0 0
b0 5
#1670
b1 0
b1 5
b1011 6
#1680
b0 0
b0 5
#1690
b1 0
b1 5
b110 8
b111 7
b0 6
b1 b
b1 4
b110 1
b110 11
b1 14
#1700
b0 0
b0 5
#1710
b1 0
b1 5
b110 15
b1 f
b1 18
b110 17
b0 b
b110 c
b1 6
b0 4
b0 14
#1720
b0 0
b0 5
#1730
b1 0
b1 5
b0 15
b0 18
b10 6
b0 f
#1740
b0 0
b0 5
#1750
b1 0
b1 5
b11 6
#1760
b0 0
b0 5
#1770
b1 0
b1 5
b100 6
#1780
b0 0
b0 5
#1790
b1 0
b1 5
b101 6
#1800
b0 0
b0 5
#1810
b1 0
b1 5
b110 6
#1820
b0 0
b0 5
#1830
b1 0
b1 5
b111 6
#1840
b0 0
b0 5
#1850
b1 0
b1 5
b1000 6
#1860
b0 0
b0 5
#1870
b1 0
b1 5
b1001 6
#1880
b0 0
b0 5
#1890
b1 0
b1 5
b1010 6
#1900
b0 0
b0 5
#1910
b1 0
b1 5
b1011 6
#1920
b0 0
b0 5
#1930
b1 0
b1 5
b111 8
b1000 7
b0 6
b1 b
b1 4
b111 1
b111 11
b1 14
#1940
b0 0
b0 5
#1950
b1 0
b1 5
b111 15
b1 f
b1 18
b111 17
b0 b
b111 c
b1 6
b0 4
b0 14
#1960
b0 0
b0 5
#1970
b1 0
b1 5
b0 15
b0 18
b10 6
b0 f
#1980
b0 0
b0 5
#1990
b1 0
b1 5
b11 6
#2000
b0 0
b0 5
#2010
b1 0
b1 5
b100 6
#2020
b0 0
b0 5
#2030
b1 0
b1 5
b101 6
#2040
b0 0
b0 5
#2050
b1 0
b1 5
b110 6
#2060
b0 0
b0 5
#2070
b1 0
b1 5
b111 6
#2080
b0 0
b0 5
#2090
b1 0
b1 5
b1000 6
#2100
b0 0
b0 5
#2110
b1 0
b1 5
b1001 6
#2120
b0 0
b0 5
#2130
b1 0
b1 5
b1010 6
#2140
b0 0
b0 5
#2150
b1 0
b1 5
b1011 6
#2160
b0 0
b0 5
#2170
b1 0
b1 5
b1000 8
b1001 7
b0 6
b1 b
b1 4
b1000 1
b1000 11
b1 14
#2180
b0 0
b0 5
#2190
b1 0
b1 5
b1000 15
b1 f
b1 18
b1000 17
b1000 c
b0 b
b1 6
b0 4
b0 14
#2200
b0 0
b0 5
#2210
b1 0
b1 5
b0 15
b0 18
b10 6
b0 f
#2220
b0 0
b0 5
#2230
b1 0
b1 5
b11 6
#2240
b0 0
b0 5
#2250
b1 0
b1 5
b100 6
#2260
b0 0
b0 5
#2270
b1 0
b1 5
b101 6
#2280
b0 0
b0 5
#2290
b1 0
b1 5
b110 6
#2300
b0 0
b0 5
#2310
b1 0
b1 5
b111 6
#2320
b0 0
b0 5
#2330
b1 0
b1 5
b1000 6
#2340
b0 0
b0 5
#2350
b1 0
b1 5
b1001 6
#2360
b0 0
b0 5
#2370
b1 0
b1 5
b1010 6
#2380
b0 0
b0 5
#2390
b1 0
b1 5
b1011 6
#2400
b0 0
b0 5
#2410
b1 0
b1 5
b1001 8
b1010 7
b0 6
b1 b
b1 4
b1001 1
b1001 11
b1 14
#2420
b0 0
b0 5
#2430
b1 0
b1 5
b1001 15
b1 f
b1 18
b1001 17
b0 b
b1001 c
b1 6
b0 4
b0 14
#2440
b0 0
b0 5
#2450
b1 0
b1 5
b0 15
b0 18
b10 6
b0 f
#2460
b0 0
b0 5
#2470
b1 0
b1 5
b11 6
#2480
b0 0
b0 5
#2490
b1 0
b1 5
b100 6
#2500
b0 0
b0 5
#2510
b1 0
b1 5
b101 6
#2520
b0 0
b0 5
#2530
b1 0
b1 5
b110 6
#2540
b0 0
b0 5
#2550
b1 0
b1 5
b111 6
#2560
b0 0
b0 5
#2570
b1 0
b1 5
b1000 6
#2580
b0 0
b0 5
#2590
b1 0
b1 5
b1001 6
#2600
b0 0
b0 5
#2610
b1 0
b1 5
b1010 6
#2620
b0 0
b0 5
#2630
b1 0
b1 5
b1011 6
#2640
b0 0
b0 5
#2650
b1 0
b1 5
b1010 8
b1011 7
b0 6
b1 b
b1 4
b1010 1
b1010 11
b1 14
#2660
b0 0
b0 5
#2670
b1 0
b1 5
b1010 15
b1 f
b1 18
b1010 17
b0 b
b1010 c
b1 6
b0 4
b0 14
#2680
b0 0
b0 5
#2690
b1 0
b1 5
b0 15
b0 18
b10 6
b0 f
#2700
b0 0
b0 5
#2710
b1 0
b1 5
b11 6
#2720
b0 0
b0 5
#2730
b1 0
b1 5
b100 6
#2740
b0 0
b0 5
#2750
b1 0
b1 5
b101 6
#2760
b0 0
b0 5
#2770
b1 0
b1 5
b110 6
#2780
b0 0
b0 5
#2790
b1 0
b1 5
b111 6
#2800
b0 0
b0 5
#2810
b1 0
b1 5
b1000 6
#2820
b0 0
b0 5
#2830
b1 0
b1 5
b1001 6
#2840
b0 0
b0 5
#2850
b1 0
b1 5
b1010 6
#2860
b0 0
b0 5
#2870
b1 0
b1 5
b1011 6
#2880
b0 0
b0 5
#2890
b1 0
b1 5
b1011 8
b1100 7
b0 6
b1 b
b1 4
b1011 1
b1011 11
b1 14
#2900
b0 0
b0 5
#2910
b1 0
b1 5
b1011 15
b1 f
b1 18
b1011 17
b1011 c
b0 b
b1 6
b0 4
b0 14
#2920
b0 0
b0 5
#2930
b1 0
b1 5
b0 15
b0 18
b10 6
b0 f
#2940
b0 0
b0 5
#2950
b1 0
b1 5
b11 6
#2960
b0 0
b0 5
#2970
b1 0
b1 5
b100 6
#2980
b0 0
b0 5
#2990
b1 0
b1 5
b101 6
#3000
b0 0
b0 5
#3010
b1 0
b1 5
b110 6
#3020
b0 0
b0 5
#3030
b1 0
b1 5
b111 6
#3040
b0 0
b0 5
#3050
b1 0
b1 5
b1000 6
#3060
b0 0
b0 5
#3070
b1 0
b1 5
b1001 6
#3080
b0 0
b0 5
#3090
b1 0
b1 5
b1010 6
#3100
b0 0
b0 5
#3110
b1 0
b1 5
b1011 6
#3120
b0 0
b0 5
#3130
b1 0
b1 5
b1100 8
b1101 7
b0 6
b1 b
b1 4
b1100 1
b1100 11
b1 14
#3140
b0 0
b0 5
#3150
b1 0
b1 5
b1100 15
b1 f
b1 18
b1100 17
b0 b
b1100 c
b1 6
b0 4
b0 14
#3160
b0 0
b0 5
#3170
b1 0
b1 5
b0 15
b0 18
b10 6
b0 f
#3180
b0 0
b0 5
#3190
b1 0
b1 5
b11 6
#3200
b0 0
b0 5
#3210
b1 0
b1 5
b100 6
#3220
b0 0
b0 5
#3230
b1 0
b1 5
b101 6
#3240
b0 0
b0 5
#3250
b1 0
b1 5
b110 6
#3260
b0 0
b0 5
#3270
b1 0
b1 5
b111 6
#3280
b0 0
b0 5
#3290
b1 0
b1 5
b1000 6
#3300
b0 0
b0 5
#3310
b1 0
b1 5
b1001 6
#3320
b0 0
b0 5
#3330
b1 0
b1 5
b1010 6
#3340
b0 0
b0 5
#3350
b1 0
b1 5
b1011 6
#3360
b0 0
b0 5
#3370
b1 0
b1 5
b1101 8
b1110 7
b0 6
b1 b
b1 4
b1101 1
b1101 11
b1 14
#3380
b0 0
b0 5
#3390
b1 0
b1 5
b1101 15
b1 f
b1 18
b1101 17
b0 b
b1101 c
b1 6
b0 4
b0 14
#3400
b0 0
b0 5
#3410
b1 0
b1 5
b0 15
b0 18
b10 6
b0 f
#3420
b0 0
b0 5
#3430
b1 0
b1 5
b11 6
#3440
b0 0
b0 5
#3450
b1 0
b1 5
b100 6
#3460
b0 0
b0 5
#3470
b1 0
b1 5
b101 6
#3480
b0 0
b0 5
#3490
b1 0
b1 5
b110 6
#3500
b0 0
b0 5
#3510
b1 0
b1 5
b111 6
#3520
b0 0
b0 5
#3530
b1 0
b1 5
b1000 6
#3540
b0 0
b0 5
#3550
b1 0
b1 5
b1001 6
#3560
b0 0
b0 5
#3570
b1 0
b1 5
b1010 6
#3580
b0 0
b0 5
#3590
b1 0
b1 5
b1011 6
#3600
b0 0
b0 5
#3610
b1 0
b1 5
b1110 8
b1111 7
b0 6
b1 b
b1 4
b1110 1
b1110 11
b1 14
#3620
b0 0
b0 5
#3630
b1 0
b1 5
b1110 15
b1 f
b1 18
b1110 17
b1110 c
b0 b
b1 6
b0 4
b0 14
#3640
b0 0
b0 5
#3650
b1 0
b1 5
b0 15
b0 18
b10 6
b0 f
#3660
b0 0
b0 5
#3670
b1 0
b1 5
b11 6
#3680
b0 0
b0 5
#3690
b1 0
b1 5
b100 6
#3700
b0 0
b0 5
#3710
b1 0
b1 5
b101 6
#3720
b0 0
b0 5
#3730
b1 0
b1 5
b110 6
#3740
b0 0
b0 5
#3750
b1 0
b1 5
b111 6
#3760
b0 0
b0 5
#3770
b1 0
b1 5
b1000 6
#3780
b0 0
b0 5
#3790
b1 0
b1 5
b1001 6
#3800
b0 0
b0 5
#3810
b1 0
b1 5
b1010 6
#3820
b0 0
b0 5
#3830
b1 0
b1 5
b1011 6
#3840
b0 0
b0 5
#3850
b1 0
b1 5
b1111 8
b10000 7
b0 6
b1 b
b1 4
b1111 1
b1111 11
b1 14
#3860
b0 0
b0 5
#3870
b1 0
b1 5
b1111 15
b1 f
b1 18
b1111 17
b0 b
b1111 c
b1 6
b0 4
b0 14
#3880
b0 0
b0 5
#3890
b1 0
b1 5
b0 15
b0 18
b10 6
b0 f
#3900
b0 0
b0 5
#3910
b1 0
b1 5
b11 6
#3920
b0 0
b0 5
#3930
b1 0
b1 5
b100 6
#3940
b0 0
b0 5
#3950
b1 0
b1 5
b101 6
#3960
b0 0
b0 5
#3970
b1 0
b1 5
b110 6
#3980
b0 0
b0 5
#3990
b1 0
b1 5
b111 6
#4000
b0 0
b0 5
#4010
b1 0
b1 5
b1000 6
#4020
b0 0
b0 5
#4030
b1 0
b1 5
b1001 6
#4040
b0 0
b0 5
#4050
b1 0
b1 5
b1010 6
#4060
b0 0
b0 5
#4070
b1 0
b1 5
b1011 6
#4080
b0 0
b0 5
#4090
b1 0
b1 5
b10000 8
b10001 7
b0 6
b1 b
b1 4
b10000 1
b10000 11
b1 14
#4100
b0 0
b0 5
#4110
b1 0
b1 5
b10000 15
b1 f
b1 18
b10000 17
b0 b
b10000 c
b1 6
b0 4
b0 14
#4120
b0 0
b0 5
#4130
b1 0
b1 5
b0 15
b0 18
b10 6
b0 f
#4140
b0 0
b0 5
#4150
b1 0
b1 5
b11 6
#4160
b0 0
b0 5
#4170
b1 0
b1 5
b100 6
#4180
b0 0
b0 5
#4190
b1 0
b1 5
b101 6
#4200
b0 0
b0 5
#4210
b1 0
b1 5
b110 6
#4220
b0 0
b0 5
#4230
b1 0
b1 5
b111 6
#4240
b0 0
b0 5
#4250
b1 0
b1 5
b1000 6
#4260
b0 0
b0 5
#4270
b1 0
b1 5
b1001 6
#4280
b0 0
b0 5
#4290
b1 0
b1 5
b1010 6
#4300
b0 0
b0 5
#4310
b1 0
b1 5
b1011 6
#4320
b0 0
b0 5
#4330
b1 0
b1 5
b10001 8
b10010 7
b0 6
b1 b
b1 4
b10001 1
b10001 11
b1 14
#4340
b0 0
b0 5
#4350
b1 0
b1 5
b10001 15
b1 f
b1 18
b10001 17
b10001 c
b0 b
b1 6
b0 4
b0 14
#4360
b0 0
b0 5
#4370
b1 0
b1 5
b0 15
b0 18
b10 6
b0 f
#4380
b0 0
b0 5
#4390
b1 0
b1 5
b11 6
#4400
b0 0
b0 5
#4410
b1 0
b1 5
b100 6
#4420
b0 0
b0 5
#4430
b1 0
b1 5
b101 6
#4440
b0 0
b0 5
#4450
b1 0
b1 5
b110 6
#4460
b0 0
b0 5
#4470
b1 0
b1 5
b111 6
#4480
b0 0
b0 5
#4490
b1 0
b1 5
b1000 6
#4500
b0 0
b0 5
#4510
b1 0
b1 5
b1001 6
#4520
b0 0
b0 5
#4530
b1 0
b1 5
b1010 6
#4540
b0 0
b0 5
#4550
b1 0
b1 5
b1011 6
#4560
b0 0
b0 5
#4570
b1 0
b1 5
b10010 8
b10011 7
b0 6
b1 b
b1 4
b10010 1
b10010 11
b1 14
#4580
b0 0
b0 5
#4590
b1 0
b1 5
b10010 15
b1 f
b1 18
b10010 17
b0 b
b10010 c
b1 6
b0 4
b0 14
#4600
b0 0
b0 5
#4610
b1 0
b1 5
b0 15
b0 18
b10 6
b0 f
#4620
b0 0
b0 5
#4630
b1 0
b1 5
b11 6
#4640
b0 0
b0 5
#4650
b1 0
b1 5
b100 6
#4660
b0 0
b0 5
#4670
b1 0
b1 5
b101 6
#4680
b0 0
b0 5
#4690
b1 0
b1 5
b110 6
#4700
b0 0
b0 5
#4710
b1 0
b1 5
b111 6
#4720
b0 0
b0 5
#4730
b1 0
b1 5
b1000 6
#4740
b0 0
b0 5
#4750
b1 0
b1 5
b1001 6
#4760
b0 0
b0 5
#4770
b1 0
b1 5
b1010 6
#4780
b0 0
b0 5
#4790
b1 0
b1 5
b1011 6
#4800
b0 0
b0 5
#4810
b1 0
b1 5
b10011 8
b10100 7
b0 6
b1 b
b1 4
b10011 1
b10011 11
b1 14
#4820
b0 0
b0 5
#4830
b1 0
b1 5
b10011 15
b1 f
b1 18
b10011 17
b0 b
b10011 c
b1 6
b0 4
b0 14
#4840
b0 0
b0 5
#4850
b1 0
b1 5
b0 15
b0 18
b10 6
b0 f
#4860
b0 0
b0 5
#4870
b1 0
b1 5
b11 6
#4880
b0 0
b0 5
#4890
b1 0
b1 5
b100 6
#4900
b0 0
b0 5
#4910
b1 0
b1 5
b101 6
#4920
b0 0
b0 5
#4930
b1 0
b1 5
b110 6
#4940
b0 0
b0 5
#4950
b1 0
b1 5
b111 6
#4960
b0 0
b0 5
#4970
b1 0
b1 5
b1000 6
#4980
b0 0
b0 5
#4990
b1 0
b1 5
b1001 6
#5000
b0 0
b0 5
#5010
b1 0
b1 5
b1010 6
#5020
b0 0
b0 5
#5030
b1 0
b1 5
b1011 6
#5040
b0 0
b0 5
#5050
b1 0
b1 5
b10100 8
b10101 7
b0 6
b1 b
b1 4
b10100 1
b10100 11
b1 14
#5060
b0 0
b0 5
#5070
b1 0
b1 5
b10100 15
b1 f
b1 18
b10100 17
b10100 c
b0 b
b1 6
b0 4
b0 14
#5080
b0 0
b0 5
#5090
b1 0
b1 5
b0 15
b0 18
b10 6
b0 f
#5100
b0 0
b0 5
#5110
b1 0
b1 5
b11 6
#5120
b0 0
b0 5
#5130
b1 0
b1 5
b100 6
#5140
b0 0
b0 5
#5150
b1 0
b1 5
b101 6
#5160
b0 0
b0 5
#5170
b1 0
b1 5
b110 6
#5180
b0 0
b0 5
#5190
b1 0
b1 5
b111 6
#5200
b0 0
b0 5
#5210
b1 0
b1 5
b1000 6
#5220
b0 0
b0 5
#5230
b1 0
b1 5
b1001 6
#5240
b0 0
b0 5
#5250
b1 0
b1 5
b1010 6
#5260
b0 0
b0 5
#5270
b1 0
b1 5
b1011 6
#5280
b0 0
b0 5
#5290
b1 0
b1 5
b10101 8
b10110 7
b0 6
b1 b
b1 4
b10101 1
b10101 11
b1 14
#5300
b0 0
b0 5
#5310
b1 0
b1 5
b10101 15
b1 f
b1 18
b10101 17
b0 b
b10101 c
b1 6
b0 4
b0 14
#5320
b0 0
b0 5
#5330
b1 0
b1 5
b0 15
b0 18
b10 6
b0 f
#5340
b0 0
b0 5
#5350
b1 0
b1 5
b11 6
#5360
b0 0
b0 5
#5370
b1 0
b1 5
b100 6
#5380
b0 0
b0 5
#5390
b1 0
b1 5
b101 6
#5400
b0 0
b0 5
#5410
b1 0
b1 5
b110 6
#5420
b0 0
b0 5
#5430
b1 0
b1 5
b111 6
#5440
b0 0
b0 5
#5450
b1 0
b1 5
b1000 6
#5460
b0 0
b0 5
#5470
b1 0
b1 5
b1001 6
#5480
b0 0
b0 5
#5490
b1 0
b1 5
b1010 6
#5500
b0 0
b0 5
#5510
b1 0
b1 5
b1011 6
#5520
b0 0
b0 5
#5530
b1 0
b1 5
b10110 8
b10111 7
b0 6
b1 b
b1 4
b10110 1
b10110 11
b1 14
#5540
b0 0
b0 5
#5550
b1 0
b1 5
b10110 15
b1 f
b1 18
b10110 17
b0 b
b10110 c
b1 6
b0 4
b0 14
#5560
b0 0
b0 5
#5570
b1 0
b1 5
b0 15
b0 18
b10 6
b0 f
#5580
b0 0
b0 5
#5590
b1 0
b1 5
b11 6
#5600
b0 0
b0 5
#5610
b1 0
b1 5
b100 6
#5620
b0 0
b0 5
#5630
b1 0
b1 5
b101 6
#5640
b0 0
b0 5
#5650
b1 0
b1 5
b110 6
#5660
b0 0
b0 5
#5670
b1 0
b1 5
b111 6
#5680
b0 0
b0 5
#5690
b1 0
b1 5
b1000 6
#5700
b0 0
b0 5
#5710
b1 0
b1 5
b1001 6
#5720
b0 0
b0 5
#5730
b1 0
b1 5
b1010 6
#5740
b0 0
b0 5
#5750
b1 0
b1 5
b1011 6
#5760
b0 0
b0 5
#5770
b1 0
b1 5
b10111 8
b11000 7
b0 6
b1 b
b1 4
b10111 1
b10111 11
b1 14
#5780
b0 0
b0 5
#5790
b1 0
b1 5
b10111 15
b1 f
b1 18
b10111 17
b10111 c
b0 b
b1 6
b0 4
b0 14
#5800
b0 0
b0 5
#5810
b1 0
b1 5
b0 15
b0 18
b10 6
b0 f
#5820
b0 0
b0 5
#5830
b1 0
b1 5
b11 6
#5840
b0 0
b0 5
#5850
b1 0
b1 5
b100 6
#5860
b0 0
b0 5
#5870
b1 0
b1 5
b101 6
#5880
b0 0
b0 5
#5890
b1 0
b1 5
b110 6
#5900
b0 0
b0 5
#5910
b1 0
b1 5
b111 6
#5920
b0 0
b0 5
#5930
b1 0
b1 5
b1000 6
#5940
b0 0
b0 5
#5950
b1 0
b1 5
b1001 6
#5960
b0 0
b0 5
#5970
b1 0
b1 5
b1010 6
#5980
b0 0
b0 5
#5990
b1 0
b1 5
b1011 6
#6000
b0 0
b0 5
#6010
b1 0
b1 5
b11000 8
b11001 7
b0 6
b1 b
b1 4
b11000 1
b11000 11
b1 14
#6020
b0 0
b0 5
#6030
b1 0
b1 5
b11000 15
b1 f
b1 18
b11000 17
b0 b
b11000 c
b1 6
b0 4
b0 14
#6040
b0 0
b0 5
#6050
b1 0
b1 5
b0 15
b0 18
b10 6
b0 f
#6060
b0 0
b0 5
#6070
b1 0
b1 5
b11 6
#6080
b0 0
b0 5
#6090
b1 0
b1 5
b100 6
#6100
b0 0
b0 5
#6110
b1 0
b1 5
b101 6
#6120
b0 0
b0 5
#6130
b1 0
b1 5
b110 6
#6140
b0 0
b0 5
#6150
b1 0
b1 5
b111 6
#6160
b0 0
b0 5
#6170
b1 0
b1 5
b1000 6
#6180
b0 0
b0 5
#6190
b1 0
b1 5
b1001 6
#6200
b0 0
b0 5
#6210
b1 0
b1 5
b1010 6
#6220
b0 0
b0 5
#6230
b1 0
b1 5
b1011 6
#6240
b0 0
b0 5
#6250
b1 0
b1 5
b11001 8
b11010 7
b0 6
b1 b
b1 4
b11001 1
b11001 11
b1 14
#6260
b0 0
b0 5
#6270
b1 0
b1 5
b11001 15
b1 f
b1 18
b11001 17
b0 b
b11001 c
b1 6
b0 4
b0 14
#6280
b0 0
b0 5
#6290
b1 0
b1 5
b0 15
b0 18
b10 6
b0 f
#6300
b0 0
b0 5
#6310
b1 0
b1 5
b11 6
#6320
b0 0
b0 5
#6330
b1 0
b1 5
b100 6
#6340
b0 0
b0 5
#6350
b1 0
b1 5
b101 6
#6360
b0 0
b0 5
#6370
b1 0
b1 5
b110 6
#6380
b0 0
b0 5
#6390
b1 0
b1 5
b111 6
#6400
b0 0
b0 5
#6410
b1 0
b1 5
b1000 6
#6420
b0 0
b0 5
#6430
b1 0
b1 5
b1001 6
#6440
b0 0
b0 5
#6450
b1 0
b1 5
b1010 6
#6460
b0 0
b0 5
#6470
b1 0
b1 5
b1011 6
#6480
b0 0
b0 5
#6490
b1 0
b1 5
b11010 8
b11011 7
b0 6
b1 b
b1 4
b11010 1
b11010 11
b1 14
#6500
b0 0
b0 5
#6510
b1 0
b1 5
b11010 15
b1 f
b1 18
b11010 17
b11010 c
b0 b
b1 6
b0 4
b0 14
#6520
b0 0
b0 5
#6530
b1 0
b1 5
b0 15
b0 18
b10 6
b0 f
#6540
b0 0
b0 5
#6550
b1 0
b1 5
b11 6
#6560
b0 0
b0 5
#6570
b1 0
b1 5
b100 6
#6580
b0 0
b0 5
#6590
b1 0
b1 5
b101 6
#6600
b0 0
b0 5
#6610
b1 0
b1 5
b110 6
#6620
b0 0
b0 5
#6630
b1 0
b1 5
b111 6
#6640
b0 0
b0 5
#6650
b1 0
b1 5
b1000 6
#6660
b0 0
b0 5
#6670
b1 0
b1 5
b1001 6
#6680
b0 0
b0 5
#6690
b1 0
b1 5
b1010 6
#6700
b0 0
b0 5
#6710
b1 0
b1 5
b1011 6
#6720
b0 0
b0 5
#6730
b1 0
b1 5
b11011 8
b11100 7
b0 6
b1 b
b1 4
b11011 1
b11011 11
b1 14
#6740
b0 0
b0 5
#6750
b1 0
b1 5
b11011 15
b1 f
b1 18
b11011 17
b0 b
b11011 c
b1 6
b0 4
b0 14
#6760
b0 0
b0 5
#6770
b1 0
b1 5
b0 15
b0 18
b10 6
b0 f
#6780
b0 0
b0 5
#6790
b1 0
b1 5
b11 6
#6800
b0 0
b0 5
#6810
b1 0
b1 5
b100 6
#6820
b0 0
b0 5
#6830
b1 0
b1 5
b101 6
#6840
b0 0
b0 5
#6850
b1 0
b1 5
b110 6
#6860
b0 0
b0 5
#6870
b1 0
b1 5
b111 6
#6880
b0 0
b0 5
#6890
b1 0
b1 5
b1000 6
#6900
b0 0
b0 5
#6910
b1 0
b1 5
b1001 6
#6920
b0 0
b0 5
#6930
b1 0
b1 5
b1010 6
#6940
b0 0
b0 5
#6950
b1 0
b1 5
b1011 6
#6960
b0 0
b0 5
#6970
b1 0
b1 5
b11100 8
b11101 7
b0 6
b1 b
b1 4
b11100 1
b11100 11
b1 14
#6980
b0 0
b0 5
#6990
b1 0
b1 5
b11100 15
b1 f
b1 18
b11100 17
b0 b
b11100 c
b1 6
b0 4
b0 14
#7000
b0 0
b0 5
