ram_tb.vcd
$date today $end
$timescale 1 ns $end
$scope module  $end
$scope module tb1 $end
$var integer 32 1 data $end
$var integer 32 2 m_counter $end
$var integer 32 15 s_counter $end
$scope module clkgen $end
$var integer 32 0 clk $end
$upscope $end
$scope module opt_data $end
$var integer 32 3 data $end
$var integer 32 4 valid $end
$upscope $end
$scope module ram $end
$var integer 32 a clk $end
$scope module DataIO $end
$var integer 32 5 Write_Data $end
$var integer 32 6 Write_address $end
$var integer 32 7 read_address $end
$var integer 32 8 read_data $end
$var integer 32 9 write_enable $end
$upscope $end
$scope module mem $end
$var integer 32 b mem(0) $end
$var integer 32 c mem(1) $end
$var integer 32 d mem(2) $end
$var integer 32 e mem(3) $end
$var integer 32 f mem(4) $end
$var integer 32 10 mem(5) $end
$var integer 32 11 mem(6) $end
$var integer 32 12 mem(7) $end
$var integer 32 13 mem(8) $end
$var integer 32 14 mem(9) $end
$upscope $end
$upscope $end
$scope module s_mem $end
$var integer 32 16 count $end
$var integer 32 17 head $end
$var integer 32 22 tail $end
$scope module mem $end
$var integer 32 18 mem(0) $end
$var integer 32 19 mem(1) $end
$var integer 32 1a mem(2) $end
$var integer 32 1b mem(3) $end
$var integer 32 1c mem(4) $end
$var integer 32 1d mem(5) $end
$var integer 32 1e mem(6) $end
$var integer 32 1f mem(7) $end
$var integer 32 20 mem(8) $end
$var integer 32 21 mem(9) $end
$upscope $end
$upscope $end
$upscope $end
$upscope $end
$enddefinitions $end
#0
$dumpvars
b0 0
b1111101000 1
b101 2
b0 3
b0 4
b0 5
b0 6
b0 7
b0 8
b0 9
b0 a
b0 b
b0 c
b0 d
b0 e
b0 f
b0 10
b0 11
b0 12
b0 13
b0 14
b101 15
b0 16
b0 17
b0 18
b0 19
b0 1a
b0 1b
b0 1c
b0 1d
b0 1e
b0 1f
b0 20
b0 21
b0 22
$end
#30
b1 0
b1 a
b110 2
#40
b0 0
b0 a
#50
b1 0
b1 a
b111 2
#60
b0 0
b0 a
#70
b1 0
b1 a
b1000 2
#80
b0 0
b0 a
#90
b1 0
b1 a
b1001 2
#100
b0 0
b0 a
#110
b1 0
b1 a
b1010 2
#120
b0 0
b0 a
#130
b1 0
b1 a
b1011 2
#140
b0 0
b0 a
#150
b1 0
b1 a
b1100 2
#160
b0 0
b0 a
#170
b1 0
b1 a
b1101 2
#180
b0 0
b0 a
#190
b1 0
b1 a
b1110 2
#200
b0 0
b0 a
#210
b1 0
b1 a
b1111 2
#220
b0 0
b0 a
#230
b1 0
b1 a
b10000 2
#240
b0 0
b0 a
#250
b1 0
b1 a
b1111101000 18
b1111101001 1
b1 17
b10001 2
b1 16
#260
b0 0
b0 a
#270
b1 0
b1 a
b1111101001 19
b10 17
b10 16
b10010 2
b1111101010 1
#280
b0 0
b0 a
#290
b1 0
b1 a
b1111101010 1a
b11 17
b11 16
b10011 2
b1111101011 1
#300
b0 0
b0 a
#310
b1 0
b1 a
b1111101011 1b
b100 17
b100 16
b10100 2
b1111101100 1
#320
b0 0
b0 a
#330
b1 0
b1 a
b1111101100 1c
b101 17
b101 16
b10101 2
b1111101101 1
#340
b0 0
b0 a
#350
b1 0
b1 a
b1111101101 1d
b1111101101 3
b110 17
b110 22
b0 16
b0 2
b1111101110 1
b1011 15
#360
b0 0
b0 a
#370
b1 0
b1 a
b1 2
#380
b0 0
b0 a
#390
b1 0
b1 a
b10 2
#400
b0 0
b0 a
#410
b1 0
b1 a
b11 2
#420
b0 0
b0 a
#430
b1 0
b1 a
b100 2
#440
b0 0
b0 a
#450
b1 0
b1 a
b101 2
#460
b0 0
b0 a
#470
b1 0
b1 a
b110 2
#480
b0 0
b0 a
#490
b1 0
b1 a
b111 2
#500
b0 0
b0 a
#510
b1 0
b1 a
b1000 2
#520
b0 0
b0 a
#530
b1 0
b1 a
b1001 2
#540
b0 0
b0 a
#550
b1 0
b1 a
b1010 2
#560
b0 0
b0 a
#570
b1 0
b1 a
b1011 2
#580
b0 0
b0 a
#590
b1 0
b1 a
b1100 2
#600
b0 0
b0 a
#610
b1 0
b1 a
b1101 2
#620
b0 0
b0 a
#630
b1 0
b1 a
b1110 2
#640
b0 0
b0 a
#650
b1 0
b1 a
b1111 2
#660
b0 0
b0 a
#670
b1 0
b1 a
b10000 2
#680
b0 0
b0 a
#690
b1 0
b1 a
b1111101110 1e
b111 17
b1 16
b10001 2
b1111101111 1
#700
b0 0
b0 a
#710
b1 0
b1 a
b1111101111 1f
b1000 17
b10 16
b10010 2
b1111110000 1
#720
b0 0
b0 a
#730
b1 0
b1 a
b1111110000 20
b1001 17
b11 16
b10011 2
b1111110001 1
#740
b0 0
b0 a
#750
b1 0
b1 a
b1111110001 21
b0 17
b100 16
b10100 2
b1111110010 1
#760
b0 0
b0 a
#770
b1 0
b1 a
b1111110010 18
b1 17
b101 16
b10101 2
b1111110011 1
#780
b0 0
b0 a
#790
b1 0
b1 a
b1111110011 19
b10 17
b0 16
b1111110011 3
b0 2
b10 22
b10001 15
b1111110100 1
#800
b0 0
b0 a
#810
b1 0
b1 a
b1 2
#820
b0 0
b0 a
#830
b1 0
b1 a
b10 2
#840
b0 0
b0 a
#850
b1 0
b1 a
b11 2
#860
b0 0
b0 a
#870
b1 0
b1 a
b100 2
#880
b0 0
b0 a
#890
b1 0
b1 a
b101 2
#900
b0 0
b0 a
#910
b1 0
b1 a
b110 2
#920
b0 0
b0 a
#930
b1 0
b1 a
b111 2
#940
b0 0
b0 a
#950
b1 0
b1 a
b1000 2
#960
b0 0
b0 a
#970
b1 0
b1 a
b1001 2
#980
b0 0
b0 a
#990
b1 0
b1 a
b1010 2
#1000
b0 0
b0 a
#1010
b1 0
b1 a
b1011 2
#1020
b0 0
b0 a
#1030
b1 0
b1 a
b1100 2
#1040
b0 0
b0 a
#1050
b1 0
b1 a
b1101 2
#1060
b0 0
b0 a
#1070
b1 0
b1 a
b1110 2
#1080
b0 0
b0 a
#1090
b1 0
b1 a
b1111 2
#1100
b0 0
b0 a
#1110
b1 0
b1 a
b10000 2
#1120
b0 0
b0 a
#1130
b1 0
b1 a
b1111110100 1a
b11 17
b1 16
b10001 2
b1111110101 1
#1140
b0 0
b0 a
#1150
b1 0
b1 a
b1111110101 1b
b100 17
b10 16
b10010 2
b1111110110 1
#1160
b0 0
b0 a
#1170
b1 0
b1 a
b1111110110 1c
b101 17
b11 16
b10011 2
b1111110111 1
#1180
b0 0
b0 a
#1190
b1 0
b1 a
b1111110111 1d
b110 17
b100 16
b10100 2
b1111111000 1
#1200
b0 0
b0 a
#1210
b1 0
b1 a
b1111111000 1e
b111 17
b101 16
b10101 2
b1111111001 1
#1220
b0 0
b0 a
#1230
b1 0
b1 a
b1111111001 1f
b1000 17
b0 16
b1111111001 3
b0 2
b1000 22
b10111 15
b1111111010 1
#1240
b0 0
b0 a
#1250
b1 0
b1 a
b1 2
#1260
b0 0
b0 a
#1270
b1 0
b1 a
b10 2
#1280
b0 0
b0 a
#1290
b1 0
b1 a
b11 2
#1300
b0 0
b0 a
#1310
b1 0
b1 a
b100 2
#1320
b0 0
b0 a
#1330
b1 0
b1 a
b101 2
#1340
b0 0
b0 a
#1350
b1 0
b1 a
b110 2
#1360
b0 0
b0 a
#1370
b1 0
b1 a
b111 2
#1380
b0 0
b0 a
#1390
b1 0
b1 a
b1000 2
#1400
b0 0
b0 a
#1410
b1 0
b1 a
b1001 2
#1420
b0 0
b0 a
#1430
b1 0
b1 a
b1010 2
#1440
b0 0
b0 a
#1450
b1 0
b1 a
b1011 2
#1460
b0 0
b0 a
#1470
b1 0
b1 a
b1100 2
#1480
b0 0
b0 a
#1490
b1 0
b1 a
b1101 2
#1500
b0 0
b0 a
#1510
b1 0
b1 a
b1110 2
#1520
b0 0
b0 a
#1530
b1 0
b1 a
b1111 2
#1540
b0 0
b0 a
#1550
b1 0
b1 a
b10000 2
#1560
b0 0
b0 a
#1570
b1 0
b1 a
b1111111010 20
b1001 17
b1 16
b10001 2
b1111111011 1
#1580
b0 0
b0 a
#1590
b1 0
b1 a
b1111111011 21
b0 17
b10 16
b10010 2
b1111111100 1
#1600
b0 0
b0 a
#1610
b1 0
b1 a
b1111111100 18
b1 17
b11 16
b10011 2
b1111111101 1
#1620
b0 0
b0 a
#1630
b1 0
b1 a
b1111111101 19
b10 17
b100 16
b10100 2
b1111111110 1
#1640
b0 0
b0 a
#1650
b1 0
b1 a
b1111111110 1a
b11 17
b101 16
b10101 2
b1111111111 1
#1660
b0 0
b0 a
#1670
b1 0
b1 a
b1111111111 1b
b100 17
b0 16
b1111111111 3
b0 2
b100 22
b11101 15
b10000000000 1
#1680
b0 0
b0 a
#1690
b1 0
b1 a
b1 2
#1700
b0 0
b0 a
#1710
b1 0
b1 a
b10 2
#1720
b0 0
b0 a
#1730
b1 0
b1 a
b11 2
#1740
b0 0
b0 a
#1750
b1 0
b1 a
b100 2
#1760
b0 0
b0 a
#1770
b1 0
b1 a
b101 2
#1780
b0 0
b0 a
#1790
b1 0
b1 a
b110 2
#1800
b0 0
b0 a
#1810
b1 0
b1 a
b111 2
#1820
b0 0
b0 a
#1830
b1 0
b1 a
b1000 2
#1840
b0 0
b0 a
#1850
b1 0
b1 a
b1001 2
#1860
b0 0
b0 a
#1870
b1 0
b1 a
b1010 2
#1880
b0 0
b0 a
#1890
b1 0
b1 a
b1011 2
#1900
b0 0
b0 a
#1910
b1 0
b1 a
b1100 2
#1920
b0 0
b0 a
#1930
b1 0
b1 a
b1101 2
#1940
b0 0
b0 a
#1950
b1 0
b1 a
b1110 2
#1960
b0 0
b0 a
#1970
b1 0
b1 a
b1111 2
#1980
b0 0
b0 a
#1990
b1 0
b1 a
b10000 2
#2000
b0 0
b0 a
#2010
b1 0
b1 a
b10000000000 1c
b101 17
b1 16
b10001 2
b10000000001 1
#2020
b0 0
b0 a
#2030
b1 0
b1 a
b10000000001 1d
b110 17
b10 16
b10010 2
b10000000010 1
#2040
b0 0
b0 a
#2050
b1 0
b1 a
b10000000010 1e
b111 17
b11 16
b10011 2
b10000000011 1
#2060
b0 0
b0 a
#2070
b1 0
b1 a
b10000000011 1f
b1000 17
b100 16
b10100 2
b10000000100 1
#2080
b0 0
b0 a
#2090
b1 0
b1 a
b10000000100 20
b1001 17
b101 16
b10101 2
b10000000101 1
#2100
b0 0
b0 a
#2110
b1 0
b1 a
b10000000101 21
b0 17
b0 16
b10000000101 3
b0 2
b0 22
b100011 15
b10000000110 1
#2120
b0 0
b0 a
#2130
b1 0
b1 a
b1 2
#2140
b0 0
b0 a
#2150
b1 0
b1 a
b10 2
#2160
b0 0
b0 a
#2170
b1 0
b1 a
b11 2
#2180
b0 0
b0 a
#2190
b1 0
b1 a
b100 2
#2200
b0 0
b0 a
#2210
b1 0
b1 a
b101 2
#2220
b0 0
b0 a
#2230
b1 0
b1 a
b110 2
#2240
b0 0
b0 a
#2250
b1 0
b1 a
b111 2
#2260
b0 0
b0 a
#2270
b1 0
b1 a
b1000 2
#2280
b0 0
b0 a
#2290
b1 0
b1 a
b1001 2
#2300
b0 0
b0 a
#2310
b1 0
b1 a
b1010 2
#2320
b0 0
b0 a
#2330
b1 0
b1 a
b1011 2
#2340
b0 0
b0 a
#2350
b1 0
b1 a
b1100 2
#2360
b0 0
b0 a
#2370
b1 0
b1 a
b1101 2
#2380
b0 0
b0 a
#2390
b1 0
b1 a
b1110 2
#2400
b0 0
b0 a
#2410
b1 0
b1 a
b1111 2
#2420
b0 0
b0 a
#2430
b1 0
b1 a
b10000 2
#2440
b0 0
b0 a
#2450
b1 0
b1 a
b10000000110 18
b1 17
b1 16
b10001 2
b10000000111 1
#2460
b0 0
b0 a
#2470
b1 0
b1 a
b10000000111 19
b10 17
b10 16
b10010 2
b10000001000 1
#2480
b0 0
b0 a
#2490
b1 0
b1 a
b10000001000 1a
b11 17
b11 16
b10011 2
b10000001001 1
#2500
b0 0
b0 a
#2510
b1 0
b1 a
b10000001001 1b
b100 17
b100 16
b10100 2
b10000001010 1
#2520
b0 0
b0 a
#2530
b1 0
b1 a
b10000001010 1c
b101 17
b101 16
b10101 2
b10000001011 1
#2540
b0 0
b0 a
#2550
b1 0
b1 a
b10000001011 1d
b110 17
b0 16
b10000001011 3
b0 2
b110 22
b101001 15
b10000001100 1
#2560
b0 0
b0 a
#2570
b1 0
b1 a
b1 2
#2580
b0 0
b0 a
#2590
b1 0
b1 a
b10 2
#2600
b0 0
b0 a
#2610
b1 0
b1 a
b11 2
#2620
b0 0
b0 a
#2630
b1 0
b1 a
b100 2
#2640
b0 0
b0 a
#2650
b1 0
b1 a
b101 2
#2660
b0 0
b0 a
#2670
b1 0
b1 a
b110 2
#2680
b0 0
b0 a
#2690
b1 0
b1 a
b111 2
#2700
b0 0
b0 a
#2710
b1 0
b1 a
b1000 2
#2720
b0 0
b0 a
#2730
b1 0
b1 a
b1001 2
#2740
b0 0
b0 a
#2750
b1 0
b1 a
b1010 2
#2760
b0 0
b0 a
#2770
b1 0
b1 a
b1011 2
#2780
b0 0
b0 a
#2790
b1 0
b1 a
b1100 2
#2800
b0 0
b0 a
#2810
b1 0
b1 a
b1101 2
#2820
b0 0
b0 a
#2830
b1 0
b1 a
b1110 2
#2840
b0 0
b0 a
#2850
b1 0
b1 a
b1111 2
#2860
b0 0
b0 a
#2870
b1 0
b1 a
b10000 2
#2880
b0 0
b0 a
#2890
b1 0
b1 a
b10000001100 1e
b111 17
b1 16
b10001 2
b10000001101 1
#2900
b0 0
b0 a
#2910
b1 0
b1 a
b10000001101 1f
b1000 17
b10 16
b10010 2
b10000001110 1
#2920
b0 0
b0 a
#2930
b1 0
b1 a
b10000001110 20
b1001 17
b11 16
b10011 2
b10000001111 1
#2940
b0 0
b0 a
#2950
b1 0
b1 a
b10000001111 21
b0 17
b100 16
b10100 2
b10000010000 1
#2960
b0 0
b0 a
#2970
b1 0
b1 a
b10000010000 18
b1 17
b101 16
b10101 2
b10000010001 1
#2980
b0 0
b0 a
#2990
b1 0
b1 a
b10000010001 19
b10 17
b0 16
b10000010001 3
b0 2
b10 22
b101111 15
b10000010010 1
#3000
b0 0
b0 a
#3010
b1 0
b1 a
b1 2
#3020
b0 0
b0 a
#3030
b1 0
b1 a
b10 2
#3040
b0 0
b0 a
#3050
b1 0
b1 a
b11 2
#3060
b0 0
b0 a
#3070
b1 0
b1 a
b100 2
#3080
b0 0
b0 a
#3090
b1 0
b1 a
b101 2
#3100
b0 0
b0 a
#3110
b1 0
b1 a
b110 2
#3120
b0 0
b0 a
#3130
b1 0
b1 a
b111 2
#3140
b0 0
b0 a
#3150
b1 0
b1 a
b1000 2
#3160
b0 0
b0 a
#3170
b1 0
b1 a
b1001 2
#3180
b0 0
b0 a
#3190
b1 0
b1 a
b1010 2
#3200
b0 0
b0 a
#3210
b1 0
b1 a
b1011 2
#3220
b0 0
b0 a
#3230
b1 0
b1 a
b1100 2
#3240
b0 0
b0 a
#3250
b1 0
b1 a
b1101 2
#3260
b0 0
b0 a
#3270
b1 0
b1 a
b1110 2
#3280
b0 0
b0 a
#3290
b1 0
b1 a
b1111 2
#3300
b0 0
b0 a
#3310
b1 0
b1 a
b10000 2
#3320
b0 0
b0 a
#3330
b1 0
b1 a
b10000010010 1a
b11 17
b1 16
b10001 2
b10000010011 1
#3340
b0 0
b0 a
#3350
b1 0
b1 a
b10000010011 1b
b100 17
b10 16
b10010 2
b10000010100 1
#3360
b0 0
b0 a
#3370
b1 0
b1 a
b10000010100 1c
b101 17
b11 16
b10011 2
b10000010101 1
#3380
b0 0
b0 a
#3390
b1 0
b1 a
b10000010101 1d
b110 17
b100 16
b10100 2
b10000010110 1
#3400
b0 0
b0 a
#3410
b1 0
b1 a
b10000010110 1e
b111 17
b101 16
b10101 2
b10000010111 1
#3420
b0 0
b0 a
#3430
b1 0
b1 a
b10000010111 1f
b1000 17
b0 16
b10000010111 3
b0 2
b1000 22
b110101 15
b10000011000 1
#3440
b0 0
b0 a
#3450
b1 0
b1 a
b1 2
#3460
b0 0
b0 a
#3470
b1 0
b1 a
b10 2
#3480
b0 0
b0 a
#3490
b1 0
b1 a
b11 2
#3500
b0 0
b0 a
#3510
b1 0
b1 a
b100 2
#3520
b0 0
b0 a
#3530
b1 0
b1 a
b101 2
#3540
b0 0
b0 a
#3550
b1 0
b1 a
b110 2
#3560
b0 0
b0 a
#3570
b1 0
b1 a
b111 2
#3580
b0 0
b0 a
#3590
b1 0
b1 a
b1000 2
#3600
b0 0
b0 a
#3610
b1 0
b1 a
b1001 2
#3620
b0 0
b0 a
#3630
b1 0
b1 a
b1010 2
#3640
b0 0
b0 a
#3650
b1 0
b1 a
b1011 2
#3660
b0 0
b0 a
#3670
b1 0
b1 a
b1100 2
#3680
b0 0
b0 a
#3690
b1 0
b1 a
b1101 2
#3700
b0 0
b0 a
#3710
b1 0
b1 a
b1110 2
#3720
b0 0
b0 a
#3730
b1 0
b1 a
b1111 2
#3740
b0 0
b0 a
#3750
b1 0
b1 a
b10000 2
#3760
b0 0
b0 a
#3770
b1 0
b1 a
b10000011000 20
b1001 17
b1 16
b10001 2
b10000011001 1
#3780
b0 0
b0 a
#3790
b1 0
b1 a
b10000011001 21
b0 17
b10 16
b10010 2
b10000011010 1
#3800
b0 0
b0 a
#3810
b1 0
b1 a
b10000011010 18
b1 17
b11 16
b10011 2
b10000011011 1
#3820
b0 0
b0 a
#3830
b1 0
b1 a
b10000011011 19
b10 17
b100 16
b10100 2
b10000011100 1
#3840
b0 0
b0 a
#3850
b1 0
b1 a
b10000011100 1a
b11 17
b101 16
b10101 2
b10000011101 1
#3860
b0 0
b0 a
#3870
b1 0
b1 a
b10000011101 1b
b100 17
b0 16
b10000011101 3
b0 2
b100 22
b111011 15
b10000011110 1
#3880
b0 0
b0 a
#3890
b1 0
b1 a
b1 2
#3900
b0 0
b0 a
#3910
b1 0
b1 a
b10 2
#3920
b0 0
b0 a
#3930
b1 0
b1 a
b11 2
#3940
b0 0
b0 a
#3950
b1 0
b1 a
b100 2
#3960
b0 0
b0 a
#3970
b1 0
b1 a
b101 2
#3980
b0 0
b0 a
#3990
b1 0
b1 a
b110 2
#4000
b0 0
b0 a
#4010
b1 0
b1 a
b111 2
#4020
b0 0
b0 a
#4030
b1 0
b1 a
b1000 2
#4040
b0 0
b0 a
#4050
b1 0
b1 a
b1001 2
#4060
b0 0
b0 a
#4070
b1 0
b1 a
b1010 2
#4080
b0 0
b0 a
#4090
b1 0
b1 a
b1011 2
#4100
b0 0
b0 a
#4110
b1 0
b1 a
b1100 2
#4120
b0 0
b0 a
#4130
b1 0
b1 a
b1101 2
#4140
b0 0
b0 a
#4150
b1 0
b1 a
b1110 2
#4160
b0 0
b0 a
#4170
b1 0
b1 a
b1111 2
#4180
b0 0
b0 a
#4190
b1 0
b1 a
b10000 2
#4200
b0 0
b0 a
#4210
b1 0
b1 a
b10000011110 1c
b101 17
b1 16
b10001 2
b10000011111 1
#4220
b0 0
b0 a
#4230
b1 0
b1 a
b10000011111 1d
b110 17
b10 16
b10010 2
b10000100000 1
#4240
b0 0
b0 a
#4250
b1 0
b1 a
b10000100000 1e
b111 17
b11 16
b10011 2
b10000100001 1
#4260
b0 0
b0 a
#4270
b1 0
b1 a
b10000100001 1f
b1000 17
b100 16
b10100 2
b10000100010 1
#4280
b0 0
b0 a
#4290
b1 0
b1 a
b10000100010 20
b1001 17
b101 16
b10101 2
b10000100011 1
#4300
b0 0
b0 a
#4310
b1 0
b1 a
b10000100011 21
b0 17
b0 16
b10000100011 3
b0 2
b0 22
b1000001 15
b10000100100 1
#4320
b0 0
b0 a
#4330
b1 0
b1 a
b1 2
#4340
b0 0
b0 a
#4350
b1 0
b1 a
b10 2
#4360
b0 0
b0 a
#4370
b1 0
b1 a
b11 2
#4380
b0 0
b0 a
#4390
b1 0
b1 a
b100 2
#4400
b0 0
b0 a
#4410
b1 0
b1 a
b101 2
#4420
b0 0
b0 a
#4430
b1 0
b1 a
b110 2
#4440
b0 0
b0 a
#4450
b1 0
b1 a
b111 2
#4460
b0 0
b0 a
#4470
b1 0
b1 a
b1000 2
#4480
b0 0
b0 a
#4490
b1 0
b1 a
b1001 2
#4500
b0 0
b0 a
#4510
b1 0
b1 a
b1010 2
#4520
b0 0
b0 a
#4530
b1 0
b1 a
b1011 2
#4540
b0 0
b0 a
#4550
b1 0
b1 a
b1100 2
#4560
b0 0
b0 a
#4570
b1 0
b1 a
b1101 2
#4580
b0 0
b0 a
#4590
b1 0
b1 a
b1110 2
#4600
b0 0
b0 a
#4610
b1 0
b1 a
b1111 2
#4620
b0 0
b0 a
#4630
b1 0
b1 a
b10000 2
#4640
b0 0
b0 a
#4650
b1 0
b1 a
b10000100100 18
b1 17
b1 16
b10001 2
b10000100101 1
#4660
b0 0
b0 a
#4670
b1 0
b1 a
b10000100101 19
b10 17
b10 16
b10010 2
b10000100110 1
#4680
b0 0
b0 a
#4690
b1 0
b1 a
b10000100110 1a
b11 17
b11 16
b10011 2
b10000100111 1
#4700
b0 0
b0 a
#4710
b1 0
b1 a
b10000100111 1b
b100 17
b100 16
b10100 2
b10000101000 1
#4720
b0 0
b0 a
#4730
b1 0
b1 a
b10000101000 1c
b101 17
b101 16
b10101 2
b10000101001 1
#4740
b0 0
b0 a
#4750
b1 0
b1 a
b10000101001 1d
b110 17
b0 16
b10000101001 3
b0 2
b110 22
b1000111 15
b10000101010 1
#4760
b0 0
b0 a
#4770
b1 0
b1 a
b1 2
#4780
b0 0
b0 a
#4790
b1 0
b1 a
b10 2
#4800
b0 0
b0 a
#4810
b1 0
b1 a
b11 2
#4820
b0 0
b0 a
#4830
b1 0
b1 a
b100 2
#4840
b0 0
b0 a
#4850
b1 0
b1 a
b101 2
#4860
b0 0
b0 a
#4870
b1 0
b1 a
b110 2
#4880
b0 0
b0 a
#4890
b1 0
b1 a
b111 2
#4900
b0 0
b0 a
#4910
b1 0
b1 a
b1000 2
#4920
b0 0
b0 a
#4930
b1 0
b1 a
b1001 2
#4940
b0 0
b0 a
#4950
b1 0
b1 a
b1010 2
#4960
b0 0
b0 a
#4970
b1 0
b1 a
b1011 2
#4980
b0 0
b0 a
#4990
b1 0
b1 a
b1100 2
#5000
b0 0
b0 a
#5010
b1 0
b1 a
b1101 2
#5020
b0 0
b0 a
#5030
b1 0
b1 a
b1110 2
#5040
b0 0
b0 a
#5050
b1 0
b1 a
b1111 2
#5060
b0 0
b0 a
#5070
b1 0
b1 a
b10000 2
#5080
b0 0
b0 a
#5090
b1 0
b1 a
b10000101010 1e
b111 17
b1 16
b10001 2
b10000101011 1
#5100
b0 0
b0 a
#5110
b1 0
b1 a
b10000101011 1f
b1000 17
b10 16
b10010 2
b10000101100 1
#5120
b0 0
b0 a
#5130
b1 0
b1 a
b10000101100 20
b1001 17
b11 16
b10011 2
b10000101101 1
#5140
b0 0
b0 a
#5150
b1 0
b1 a
b10000101101 21
b0 17
b100 16
b10100 2
b10000101110 1
#5160
b0 0
b0 a
#5170
b1 0
b1 a
b10000101110 18
b1 17
b101 16
b10101 2
b10000101111 1
#5180
b0 0
b0 a
#5190
b1 0
b1 a
b10000101111 19
b10 17
b0 16
b10000101111 3
b0 2
b10 22
b1001101 15
b10000110000 1
#5200
b0 0
b0 a
#5210
b1 0
b1 a
b1 2
#5220
b0 0
b0 a
#5230
b1 0
b1 a
b10 2
#5240
b0 0
b0 a
#5250
b1 0
b1 a
b11 2
#5260
b0 0
b0 a
#5270
b1 0
b1 a
b100 2
#5280
b0 0
b0 a
#5290
b1 0
b1 a
b101 2
#5300
b0 0
b0 a
#5310
b1 0
b1 a
b110 2
#5320
b0 0
b0 a
#5330
b1 0
b1 a
b111 2
#5340
b0 0
b0 a
#5350
b1 0
b1 a
b1000 2
#5360
b0 0
b0 a
#5370
b1 0
b1 a
b1001 2
#5380
b0 0
b0 a
#5390
b1 0
b1 a
b1010 2
#5400
b0 0
b0 a
#5410
b1 0
b1 a
b1011 2
#5420
b0 0
b0 a
#5430
b1 0
b1 a
b1100 2
#5440
b0 0
b0 a
#5450
b1 0
b1 a
b1101 2
#5460
b0 0
b0 a
#5470
b1 0
b1 a
b1110 2
#5480
b0 0
b0 a
#5490
b1 0
b1 a
b1111 2
#5500
b0 0
b0 a
#5510
b1 0
b1 a
b10000 2
#5520
b0 0
b0 a
#5530
b1 0
b1 a
b10000110000 1a
b11 17
b1 16
b10001 2
b10000110001 1
#5540
b0 0
b0 a
#5550
b1 0
b1 a
b10000110001 1b
b100 17
b10 16
b10010 2
b10000110010 1
#5560
b0 0
b0 a
#5570
b1 0
b1 a
b10000110010 1c
b101 17
b11 16
b10011 2
b10000110011 1
#5580
b0 0
b0 a
#5590
b1 0
b1 a
b10000110011 1d
b110 17
b100 16
b10100 2
b10000110100 1
#5600
b0 0
b0 a
#5610
b1 0
b1 a
b10000110100 1e
b111 17
b101 16
b10101 2
b10000110101 1
#5620
b0 0
b0 a
#5630
b1 0
b1 a
b10000110101 1f
b1000 17
b0 16
b10000110101 3
b0 2
b1000 22
b1010011 15
b10000110110 1
#5640
b0 0
b0 a
#5650
b1 0
b1 a
b1 2
#5660
b0 0
b0 a
#5670
b1 0
b1 a
b10 2
#5680
b0 0
b0 a
#5690
b1 0
b1 a
b11 2
#5700
b0 0
b0 a
#5710
b1 0
b1 a
b100 2
#5720
b0 0
b0 a
#5730
b1 0
b1 a
b101 2
#5740
b0 0
b0 a
#5750
b1 0
b1 a
b110 2
#5760
b0 0
b0 a
#5770
b1 0
b1 a
b111 2
#5780
b0 0
b0 a
#5790
b1 0
b1 a
b1000 2
#5800
b0 0
b0 a
#5810
b1 0
b1 a
b1001 2
#5820
b0 0
b0 a
#5830
b1 0
b1 a
b1010 2
#5840
b0 0
b0 a
#5850
b1 0
b1 a
b1011 2
#5860
b0 0
b0 a
#5870
b1 0
b1 a
b1100 2
#5880
b0 0
b0 a
#5890
b1 0
b1 a
b1101 2
#5900
b0 0
b0 a
#5910
b1 0
b1 a
b1110 2
#5920
b0 0
b0 a
#5930
b1 0
b1 a
b1111 2
#5940
b0 0
b0 a
#5950
b1 0
b1 a
b10000 2
#5960
b0 0
b0 a
#5970
b1 0
b1 a
b10000110110 20
b1001 17
b1 16
b10001 2
b10000110111 1
#5980
b0 0
b0 a
#5990
b1 0
b1 a
b10000110111 21
b0 17
b10 16
b10010 2
b10000111000 1
#6000
b0 0
b0 a
#6010
b1 0
b1 a
b10000111000 18
b1 17
b11 16
b10011 2
b10000111001 1
#6020
b0 0
b0 a
#6030
b1 0
b1 a
b10000111001 19
b10 17
b100 16
b10100 2
b10000111010 1
#6040
b0 0
b0 a
#6050
b1 0
b1 a
b10000111010 1a
b11 17
b101 16
b10101 2
b10000111011 1
#6060
b0 0
b0 a
#6070
b1 0
b1 a
b10000111011 1b
b100 17
b0 16
b10000111011 3
b0 2
b100 22
b1011001 15
b10000111100 1
#6080
b0 0
b0 a
#6090
b1 0
b1 a
b1 2
#6100
b0 0
b0 a
#6110
b1 0
b1 a
b10 2
#6120
b0 0
b0 a
#6130
b1 0
b1 a
b11 2
#6140
b0 0
b0 a
#6150
b1 0
b1 a
b100 2
#6160
b0 0
b0 a
#6170
b1 0
b1 a
b101 2
#6180
b0 0
b0 a
#6190
b1 0
b1 a
b110 2
#6200
b0 0
b0 a
#6210
b1 0
b1 a
b111 2
#6220
b0 0
b0 a
#6230
b1 0
b1 a
b1000 2
#6240
b0 0
b0 a
#6250
b1 0
b1 a
b1001 2
#6260
b0 0
b0 a
#6270
b1 0
b1 a
b1010 2
#6280
b0 0
b0 a
#6290
b1 0
b1 a
b1011 2
#6300
b0 0
b0 a
#6310
b1 0
b1 a
b1100 2
#6320
b0 0
b0 a
#6330
b1 0
b1 a
b1101 2
#6340
b0 0
b0 a
#6350
b1 0
b1 a
b1110 2
#6360
b0 0
b0 a
#6370
b1 0
b1 a
b1111 2
#6380
b0 0
b0 a
#6390
b1 0
b1 a
b10000 2
#6400
b0 0
b0 a
#6410
b1 0
b1 a
b10000111100 1c
b101 17
b1 16
b10001 2
b10000111101 1
#6420
b0 0
b0 a
#6430
b1 0
b1 a
b10000111101 1d
b110 17
b10 16
b10010 2
b10000111110 1
#6440
b0 0
b0 a
#6450
b1 0
b1 a
b10000111110 1e
b111 17
b11 16
b10011 2
b10000111111 1
#6460
b0 0
b0 a
#6470
b1 0
b1 a
b10000111111 1f
b1000 17
b100 16
b10100 2
b10001000000 1
#6480
b0 0
b0 a
#6490
b1 0
b1 a
b10001000000 20
b1001 17
b101 16
b10101 2
b10001000001 1
#6500
b0 0
b0 a
#6510
b1 0
b1 a
b10001000001 21
b0 17
b0 16
b10001000001 3
b0 2
b0 22
b1011111 15
b10001000010 1
#6520
b0 0
b0 a
#6530
b1 0
b1 a
b1 2
#6540
b0 0
b0 a
#6550
b1 0
b1 a
b10 2
#6560
b0 0
b0 a
#6570
b1 0
b1 a
b11 2
#6580
b0 0
b0 a
#6590
b1 0
b1 a
b100 2
#6600
b0 0
b0 a
#6610
b1 0
b1 a
b101 2
#6620
b0 0
b0 a
#6630
b1 0
b1 a
b110 2
#6640
b0 0
b0 a
#6650
b1 0
b1 a
b111 2
#6660
b0 0
b0 a
#6670
b1 0
b1 a
b1000 2
#6680
b0 0
b0 a
#6690
b1 0
b1 a
b1001 2
#6700
b0 0
b0 a
#6710
b1 0
b1 a
b1010 2
#6720
b0 0
b0 a
#6730
b1 0
b1 a
b1011 2
#6740
b0 0
b0 a
#6750
b1 0
b1 a
b1100 2
#6760
b0 0
b0 a
#6770
b1 0
b1 a
b1101 2
#6780
b0 0
b0 a
#6790
b1 0
b1 a
b1110 2
#6800
b0 0
b0 a
#6810
b1 0
b1 a
b1111 2
#6820
b0 0
b0 a
