ram_tb.vcd
$date today $end
$timescale 1 ns $end
$scope module  $end
$scope module tb1 $end
$var integer 32 0 adsdata $end
$var integer 32 2 data $end
$var integer 32 3 m_counter $end
$var integer 32 16 s_counter $end
$scope module clkgen $end
$var integer 32 1 clk $end
$upscope $end
$scope module opt_data $end
$var integer 32 4 data $end
$var integer 32 5 valid $end
$upscope $end
$scope module ram $end
$var integer 32 b clk $end
$scope module DataIO $end
$var integer 32 6 Write_Data $end
$var integer 32 7 Write_address $end
$var integer 32 8 read_address $end
$var integer 32 9 read_data $end
$var integer 32 a write_enable $end
$upscope $end
$scope module mem $end
$var integer 32 c mem(0) $end
$var integer 32 d mem(1) $end
$var integer 32 e mem(2) $end
$var integer 32 f mem(3) $end
$var integer 32 10 mem(4) $end
$var integer 32 11 mem(5) $end
$var integer 32 12 mem(6) $end
$var integer 32 13 mem(7) $end
$var integer 32 14 mem(8) $end
$var integer 32 15 mem(9) $end
$upscope $end
$upscope $end
$scope module s_mem $end
$var integer 32 17 count $end
$var integer 32 18 head $end
$var integer 32 23 tail $end
$scope module mem $end
$var integer 32 19 mem(0) $end
$var integer 32 1a mem(1) $end
$var integer 32 1b mem(2) $end
$var integer 32 1c mem(3) $end
$var integer 32 1d mem(4) $end
$var integer 32 1e mem(5) $end
$var integer 32 1f mem(6) $end
$var integer 32 20 mem(7) $end
$var integer 32 21 mem(8) $end
$var integer 32 22 mem(9) $end
$upscope $end
$upscope $end
$upscope $end
$upscope $end
$enddefinitions $end
#0
$dumpvars
b1111101000 0
b0 1
b1111101000 2
b101 3
b0 4
b0 5
b0 6
b0 7
b0 8
b0 9
b0 a
b0 b
b0 c
b0 d
b0 e
b0 f
b0 10
b0 11
b0 12
b0 13
b0 14
b0 15
b101 16
b0 17
b0 18
b0 19
b0 1a
b0 1b
b0 1c
b0 1d
b0 1e
b0 1f
b0 20
b0 21
b0 22
b0 23
$end
#30
b1 1
b1 b
b110 3
#40
b0 1
b0 b
#50
b1 1
b1 b
b111 3
#60
b0 1
b0 b
#70
b1 1
b1 b
b1000 3
#80
b0 1
b0 b
#90
b1 1
b1 b
b1001 3
#100
b0 1
b0 b
#110
b1 1
b1 b
b1010 3
#120
b0 1
b0 b
#130
b1 1
b1 b
b1011 3
#140
b0 1
b0 b
#150
b1 1
b1 b
b1100 3
#160
b0 1
b0 b
#170
b1 1
b1 b
b1101 3
#180
b0 1
b0 b
#190
b1 1
b1 b
b1110 3
#200
b0 1
b0 b
#210
b1 1
b1 b
b1111 3
#220
b0 1
b0 b
#230
b1 1
b1 b
b10000 3
#240
b0 1
b0 b
#250
b1 1
b1 b
b1111101000 19
b1 18
b1111101001 2
b10001 3
b1 17
#260
b0 1
b0 b
#270
b1 1
b1 b
b1111101010 2
b1111101001 1a
b10 18
b10 17
b10010 3
#280
b0 1
b0 b
#290
b1 1
b1 b
b1111101011 2
b1111101010 1b
b11 18
b11 17
b10011 3
#300
b0 1
b0 b
#310
b1 1
b1 b
b1111101100 2
b1111101011 1c
b100 18
b100 17
b10100 3
#320
b0 1
b0 b
#330
b1 1
b1 b
b1111101101 2
b1111101100 1d
b101 18
b101 17
b10101 3
#340
b0 1
b0 b
#350
b1 1
b1 b
b1011 16
b1111101101 0
b1111101110 2
b1111101101 4
b1111101101 1e
b110 18
b110 23
b0 17
b0 3
#360
b0 1
b0 b
#370
b1 1
b1 b
b1 3
#380
b0 1
b0 b
#390
b1 1
b1 b
b10 3
#400
b0 1
b0 b
#410
b1 1
b1 b
b11 3
#420
b0 1
b0 b
#430
b1 1
b1 b
b100 3
#440
b0 1
b0 b
#450
b1 1
b1 b
b101 3
#460
b0 1
b0 b
#470
b1 1
b1 b
b110 3
#480
b0 1
b0 b
#490
b1 1
b1 b
b111 3
#500
b0 1
b0 b
#510
b1 1
b1 b
b1000 3
#520
b0 1
b0 b
#530
b1 1
b1 b
b1001 3
#540
b0 1
b0 b
#550
b1 1
b1 b
b1010 3
#560
b0 1
b0 b
#570
b1 1
b1 b
b1011 3
#580
b0 1
b0 b
#590
b1 1
b1 b
b1100 3
#600
b0 1
b0 b
#610
b1 1
b1 b
b1101 3
#620
b0 1
b0 b
#630
b1 1
b1 b
b1110 3
#640
b0 1
b0 b
#650
b1 1
b1 b
b1111 3
#660
b0 1
b0 b
#670
b1 1
b1 b
b10000 3
#680
b0 1
b0 b
#690
b1 1
b1 b
b1111101110 1f
b111 18
b1 17
b1111101111 2
b10001 3
#700
b0 1
b0 b
#710
b1 1
b1 b
b1111110000 2
b1111101111 20
b1000 18
b10 17
b10010 3
#720
b0 1
b0 b
#730
b1 1
b1 b
b1111110001 2
b1111110000 21
b1001 18
b11 17
b10011 3
#740
b0 1
b0 b
#750
b1 1
b1 b
b1111110010 2
b1111110001 22
b0 18
b100 17
b10100 3
#760
b0 1
b0 b
#770
b1 1
b1 b
b1111110011 2
b1111110010 19
b1 18
b101 17
b10101 3
#780
b0 1
b0 b
#790
b1 1
b1 b
b1111110100 2
b1111110011 1a
b10 18
b1111110011 4
b10 23
b1111110011 0
b10001 16
b0 17
b0 3
#800
b0 1
b0 b
#810
b1 1
b1 b
b1 3
#820
b0 1
b0 b
#830
b1 1
b1 b
b10 3
#840
b0 1
b0 b
#850
b1 1
b1 b
b11 3
#860
b0 1
b0 b
#870
b1 1
b1 b
b100 3
#880
b0 1
b0 b
#890
b1 1
b1 b
b101 3
#900
b0 1
b0 b
#910
b1 1
b1 b
b110 3
#920
b0 1
b0 b
#930
b1 1
b1 b
b111 3
#940
b0 1
b0 b
#950
b1 1
b1 b
b1000 3
#960
b0 1
b0 b
#970
b1 1
b1 b
b1001 3
#980
b0 1
b0 b
#990
b1 1
b1 b
b1010 3
#1000
b0 1
b0 b
#1010
b1 1
b1 b
b1011 3
#1020
b0 1
b0 b
#1030
b1 1
b1 b
b1100 3
#1040
b0 1
b0 b
#1050
b1 1
b1 b
b1101 3
#1060
b0 1
b0 b
#1070
b1 1
b1 b
b1110 3
#1080
b0 1
b0 b
#1090
b1 1
b1 b
b1111 3
#1100
b0 1
b0 b
#1110
b1 1
b1 b
b10000 3
#1120
b0 1
b0 b
#1130
b1 1
b1 b
b1111110100 1b
b11 18
b1 17
b1111110101 2
b10001 3
#1140
b0 1
b0 b
#1150
b1 1
b1 b
b1111110110 2
b1111110101 1c
b100 18
b10 17
b10010 3
#1160
b0 1
b0 b
#1170
b1 1
b1 b
b1111110111 2
b1111110110 1d
b101 18
b11 17
b10011 3
#1180
b0 1
b0 b
#1190
b1 1
b1 b
b1111111000 2
b1111110111 1e
b110 18
b100 17
b10100 3
#1200
b0 1
b0 b
#1210
b1 1
b1 b
b1111111001 2
b1111111000 1f
b111 18
b101 17
b10101 3
#1220
b0 1
b0 b
#1230
b1 1
b1 b
b1111111010 2
b1111111001 20
b1000 18
b1111111001 4
b1000 23
b0 17
b1111111001 0
b10111 16
b0 3
#1240
b0 1
b0 b
#1250
b1 1
b1 b
b1 3
#1260
b0 1
b0 b
#1270
b1 1
b1 b
b10 3
#1280
b0 1
b0 b
#1290
b1 1
b1 b
b11 3
#1300
b0 1
b0 b
#1310
b1 1
b1 b
b100 3
#1320
b0 1
b0 b
#1330
b1 1
b1 b
b101 3
#1340
b0 1
b0 b
#1350
b1 1
b1 b
b110 3
#1360
b0 1
b0 b
#1370
b1 1
b1 b
b111 3
#1380
b0 1
b0 b
#1390
b1 1
b1 b
b1000 3
#1400
b0 1
b0 b
#1410
b1 1
b1 b
b1001 3
#1420
b0 1
b0 b
#1430
b1 1
b1 b
b1010 3
#1440
b0 1
b0 b
#1450
b1 1
b1 b
b1011 3
#1460
b0 1
b0 b
#1470
b1 1
b1 b
b1100 3
#1480
b0 1
b0 b
#1490
b1 1
b1 b
b1101 3
#1500
b0 1
b0 b
#1510
b1 1
b1 b
b1110 3
#1520
b0 1
b0 b
#1530
b1 1
b1 b
b1111 3
#1540
b0 1
b0 b
#1550
b1 1
b1 b
b10000 3
#1560
b0 1
b0 b
#1570
b1 1
b1 b
b1111111010 21
b1001 18
b1 17
b1111111011 2
b10001 3
#1580
b0 1
b0 b
#1590
b1 1
b1 b
b1111111100 2
b1111111011 22
b0 18
b10 17
b10010 3
#1600
b0 1
b0 b
#1610
b1 1
b1 b
b1111111101 2
b1111111100 19
b1 18
b11 17
b10011 3
#1620
b0 1
b0 b
#1630
b1 1
b1 b
b1111111110 2
b1111111101 1a
b10 18
b100 17
b10100 3
#1640
b0 1
b0 b
#1650
b1 1
b1 b
b1111111111 2
b1111111110 1b
b11 18
b101 17
b10101 3
#1660
b0 1
b0 b
#1670
b1 1
b1 b
b10000000000 2
b1111111111 1c
b100 18
b1111111111 4
b100 23
b1111111111 0
b11101 16
b0 17
b0 3
#1680
b0 1
b0 b
#1690
b1 1
b1 b
b1 3
#1700
b0 1
b0 b
#1710
b1 1
b1 b
b10 3
#1720
b0 1
b0 b
#1730
b1 1
b1 b
b11 3
#1740
b0 1
b0 b
#1750
b1 1
b1 b
b100 3
#1760
b0 1
b0 b
#1770
b1 1
b1 b
b101 3
#1780
b0 1
b0 b
#1790
b1 1
b1 b
b110 3
#1800
b0 1
b0 b
#1810
b1 1
b1 b
b111 3
#1820
b0 1
b0 b
#1830
b1 1
b1 b
b1000 3
#1840
b0 1
b0 b
#1850
b1 1
b1 b
b1001 3
#1860
b0 1
b0 b
#1870
b1 1
b1 b
b1010 3
#1880
b0 1
b0 b
#1890
b1 1
b1 b
b1011 3
#1900
b0 1
b0 b
#1910
b1 1
b1 b
b1100 3
#1920
b0 1
b0 b
#1930
b1 1
b1 b
b1101 3
#1940
b0 1
b0 b
#1950
b1 1
b1 b
b1110 3
#1960
b0 1
b0 b
#1970
b1 1
b1 b
b1111 3
#1980
b0 1
b0 b
#1990
b1 1
b1 b
b10000 3
#2000
b0 1
b0 b
#2010
b1 1
b1 b
b10000000000 1d
b101 18
b1 17
b10000000001 2
b10001 3
#2020
b0 1
b0 b
#2030
b1 1
b1 b
b10000000010 2
b10000000001 1e
b110 18
b10 17
b10010 3
#2040
b0 1
b0 b
#2050
b1 1
b1 b
b10000000011 2
b10000000010 1f
b111 18
b11 17
b10011 3
#2060
b0 1
b0 b
#2070
b1 1
b1 b
b10000000100 2
b10000000011 20
b1000 18
b100 17
b10100 3
#2080
b0 1
b0 b
#2090
b1 1
b1 b
b10000000101 2
b10000000100 21
b1001 18
b101 17
b10101 3
#2100
b0 1
b0 b
#2110
b1 1
b1 b
b10000000110 2
b10000000101 22
b0 18
b10000000101 4
b0 23
b10000000101 0
b100011 16
b0 17
b0 3
#2120
b0 1
b0 b
#2130
b1 1
b1 b
b1 3
#2140
b0 1
b0 b
#2150
b1 1
b1 b
b10 3
#2160
b0 1
b0 b
#2170
b1 1
b1 b
b11 3
#2180
b0 1
b0 b
#2190
b1 1
b1 b
b100 3
#2200
b0 1
b0 b
#2210
b1 1
b1 b
b101 3
#2220
b0 1
b0 b
#2230
b1 1
b1 b
b110 3
#2240
b0 1
b0 b
#2250
b1 1
b1 b
b111 3
#2260
b0 1
b0 b
#2270
b1 1
b1 b
b1000 3
#2280
b0 1
b0 b
#2290
b1 1
b1 b
b1001 3
#2300
b0 1
b0 b
#2310
b1 1
b1 b
b1010 3
#2320
b0 1
b0 b
#2330
b1 1
b1 b
b1011 3
#2340
b0 1
b0 b
#2350
b1 1
b1 b
b1100 3
#2360
b0 1
b0 b
#2370
b1 1
b1 b
b1101 3
#2380
b0 1
b0 b
#2390
b1 1
b1 b
b1110 3
#2400
b0 1
b0 b
#2410
b1 1
b1 b
b1111 3
#2420
b0 1
b0 b
#2430
b1 1
b1 b
b10000 3
#2440
b0 1
b0 b
#2450
b1 1
b1 b
b10000000110 19
b1 18
b1 17
b10000000111 2
b10001 3
#2460
b0 1
b0 b
#2470
b1 1
b1 b
b10000001000 2
b10000000111 1a
b10 18
b10 17
b10010 3
#2480
b0 1
b0 b
#2490
b1 1
b1 b
b10000001001 2
b10000001000 1b
b11 18
b11 17
b10011 3
#2500
b0 1
b0 b
#2510
b1 1
b1 b
b10000001010 2
b10000001001 1c
b100 18
b100 17
b10100 3
#2520
b0 1
b0 b
#2530
b1 1
b1 b
b10000001011 2
b10000001010 1d
b101 18
b101 17
b10101 3
#2540
b0 1
b0 b
#2550
b1 1
b1 b
b10000001100 2
b10000001011 1e
b110 18
b10000001011 4
b110 23
b10000001011 0
b101001 16
b0 17
b0 3
#2560
b0 1
b0 b
#2570
b1 1
b1 b
b1 3
#2580
b0 1
b0 b
#2590
b1 1
b1 b
b10 3
#2600
b0 1
b0 b
#2610
b1 1
b1 b
b11 3
#2620
b0 1
b0 b
#2630
b1 1
b1 b
b100 3
#2640
b0 1
b0 b
#2650
b1 1
b1 b
b101 3
#2660
b0 1
b0 b
#2670
b1 1
b1 b
b110 3
#2680
b0 1
b0 b
#2690
b1 1
b1 b
b111 3
#2700
b0 1
b0 b
#2710
b1 1
b1 b
b1000 3
#2720
b0 1
b0 b
#2730
b1 1
b1 b
b1001 3
#2740
b0 1
b0 b
#2750
b1 1
b1 b
b1010 3
#2760
b0 1
b0 b
#2770
b1 1
b1 b
b1011 3
#2780
b0 1
b0 b
#2790
b1 1
b1 b
b1100 3
#2800
b0 1
b0 b
#2810
b1 1
b1 b
b1101 3
#2820
b0 1
b0 b
#2830
b1 1
b1 b
b1110 3
#2840
b0 1
b0 b
#2850
b1 1
b1 b
b1111 3
#2860
b0 1
b0 b
#2870
b1 1
b1 b
b10000 3
#2880
b0 1
b0 b
#2890
b1 1
b1 b
b10000001100 1f
b111 18
b1 17
b10000001101 2
b10001 3
#2900
b0 1
b0 b
#2910
b1 1
b1 b
b10000001110 2
b10000001101 20
b1000 18
b10 17
b10010 3
#2920
b0 1
b0 b
#2930
b1 1
b1 b
b10000001111 2
b10000001110 21
b1001 18
b11 17
b10011 3
#2940
b0 1
b0 b
#2950
b1 1
b1 b
b10000010000 2
b10000001111 22
b0 18
b100 17
b10100 3
#2960
b0 1
b0 b
#2970
b1 1
b1 b
b10000010001 2
b10000010000 19
b1 18
b101 17
b10101 3
#2980
b0 1
b0 b
#2990
b1 1
b1 b
b10000010010 2
b10000010001 1a
b10 18
b10000010001 4
b10 23
b10000010001 0
b101111 16
b0 17
b0 3
#3000
b0 1
b0 b
#3010
b1 1
b1 b
b1 3
#3020
b0 1
b0 b
#3030
b1 1
b1 b
b10 3
#3040
b0 1
b0 b
#3050
b1 1
b1 b
b11 3
#3060
b0 1
b0 b
#3070
b1 1
b1 b
b100 3
#3080
b0 1
b0 b
#3090
b1 1
b1 b
b101 3
#3100
b0 1
b0 b
#3110
b1 1
b1 b
b110 3
#3120
b0 1
b0 b
#3130
b1 1
b1 b
b111 3
#3140
b0 1
b0 b
#3150
b1 1
b1 b
b1000 3
#3160
b0 1
b0 b
#3170
b1 1
b1 b
b1001 3
#3180
b0 1
b0 b
#3190
b1 1
b1 b
b1010 3
#3200
b0 1
b0 b
#3210
b1 1
b1 b
b1011 3
#3220
b0 1
b0 b
#3230
b1 1
b1 b
b1100 3
#3240
b0 1
b0 b
#3250
b1 1
b1 b
b1101 3
#3260
b0 1
b0 b
#3270
b1 1
b1 b
b1110 3
#3280
b0 1
b0 b
#3290
b1 1
b1 b
b1111 3
#3300
b0 1
b0 b
#3310
b1 1
b1 b
b10000 3
#3320
b0 1
b0 b
#3330
b1 1
b1 b
b10000010010 1b
b11 18
b1 17
b10000010011 2
b10001 3
#3340
b0 1
b0 b
#3350
b1 1
b1 b
b10000010100 2
b10000010011 1c
b100 18
b10 17
b10010 3
#3360
b0 1
b0 b
#3370
b1 1
b1 b
b10000010101 2
b10000010100 1d
b101 18
b11 17
b10011 3
#3380
b0 1
b0 b
#3390
b1 1
b1 b
b10000010110 2
b10000010101 1e
b110 18
b100 17
b10100 3
#3400
b0 1
b0 b
#3410
b1 1
b1 b
b10000010111 2
b10000010110 1f
b111 18
b101 17
b10101 3
#3420
b0 1
b0 b
#3430
b1 1
b1 b
b10000011000 2
b10000010111 20
b1000 18
b10000010111 4
b1000 23
b10000010111 0
b110101 16
b0 17
b0 3
#3440
b0 1
b0 b
#3450
b1 1
b1 b
b1 3
#3460
b0 1
b0 b
#3470
b1 1
b1 b
b10 3
#3480
b0 1
b0 b
#3490
b1 1
b1 b
b11 3
#3500
b0 1
b0 b
#3510
b1 1
b1 b
b100 3
#3520
b0 1
b0 b
#3530
b1 1
b1 b
b101 3
#3540
b0 1
b0 b
#3550
b1 1
b1 b
b110 3
#3560
b0 1
b0 b
#3570
b1 1
b1 b
b111 3
#3580
b0 1
b0 b
#3590
b1 1
b1 b
b1000 3
#3600
b0 1
b0 b
#3610
b1 1
b1 b
b1001 3
#3620
b0 1
b0 b
#3630
b1 1
b1 b
b1010 3
#3640
b0 1
b0 b
#3650
b1 1
b1 b
b1011 3
#3660
b0 1
b0 b
#3670
b1 1
b1 b
b1100 3
#3680
b0 1
b0 b
#3690
b1 1
b1 b
b1101 3
#3700
b0 1
b0 b
#3710
b1 1
b1 b
b1110 3
#3720
b0 1
b0 b
#3730
b1 1
b1 b
b1111 3
#3740
b0 1
b0 b
#3750
b1 1
b1 b
b10000 3
#3760
b0 1
b0 b
#3770
b1 1
b1 b
b10000011000 21
b1001 18
b1 17
b10000011001 2
b10001 3
#3780
b0 1
b0 b
#3790
b1 1
b1 b
b10000011010 2
b10000011001 22
b0 18
b10 17
b10010 3
#3800
b0 1
b0 b
#3810
b1 1
b1 b
b10000011011 2
b10000011010 19
b1 18
b11 17
b10011 3
#3820
b0 1
b0 b
#3830
b1 1
b1 b
b10000011100 2
b10000011011 1a
b10 18
b100 17
b10100 3
#3840
b0 1
b0 b
#3850
b1 1
b1 b
b10000011101 2
b10000011100 1b
b11 18
b101 17
b10101 3
#3860
b0 1
b0 b
#3870
b1 1
b1 b
b10000011110 2
b10000011101 1c
b100 18
b10000011101 4
b100 23
b10000011101 0
b111011 16
b0 17
b0 3
#3880
b0 1
b0 b
#3890
b1 1
b1 b
b1 3
#3900
b0 1
b0 b
#3910
b1 1
b1 b
b10 3
#3920
b0 1
b0 b
#3930
b1 1
b1 b
b11 3
#3940
b0 1
b0 b
#3950
b1 1
b1 b
b100 3
#3960
b0 1
b0 b
#3970
b1 1
b1 b
b101 3
#3980
b0 1
b0 b
#3990
b1 1
b1 b
b110 3
#4000
b0 1
b0 b
#4010
b1 1
b1 b
b111 3
#4020
b0 1
b0 b
#4030
b1 1
b1 b
b1000 3
#4040
b0 1
b0 b
#4050
b1 1
b1 b
b1001 3
#4060
b0 1
b0 b
#4070
b1 1
b1 b
b1010 3
#4080
b0 1
b0 b
#4090
b1 1
b1 b
b1011 3
#4100
b0 1
b0 b
#4110
b1 1
b1 b
b1100 3
#4120
b0 1
b0 b
#4130
b1 1
b1 b
b1101 3
#4140
b0 1
b0 b
#4150
b1 1
b1 b
b1110 3
#4160
b0 1
b0 b
#4170
b1 1
b1 b
b1111 3
#4180
b0 1
b0 b
#4190
b1 1
b1 b
b10000 3
#4200
b0 1
b0 b
#4210
b1 1
b1 b
b10000011110 1d
b101 18
b1 17
b10000011111 2
b10001 3
#4220
b0 1
b0 b
#4230
b1 1
b1 b
b10000100000 2
b10000011111 1e
b110 18
b10 17
b10010 3
#4240
b0 1
b0 b
#4250
b1 1
b1 b
b10000100001 2
b10000100000 1f
b111 18
b11 17
b10011 3
#4260
b0 1
b0 b
#4270
b1 1
b1 b
b10000100010 2
b10000100001 20
b1000 18
b100 17
b10100 3
#4280
b0 1
b0 b
#4290
b1 1
b1 b
b10000100011 2
b10000100010 21
b1001 18
b101 17
b10101 3
#4300
b0 1
b0 b
#4310
b1 1
b1 b
b10000100100 2
b10000100011 22
b0 18
b10000100011 4
b0 23
b10000100011 0
b1000001 16
b0 17
b0 3
#4320
b0 1
b0 b
#4330
b1 1
b1 b
b1 3
#4340
b0 1
b0 b
#4350
b1 1
b1 b
b10 3
#4360
b0 1
b0 b
#4370
b1 1
b1 b
b11 3
#4380
b0 1
b0 b
#4390
b1 1
b1 b
b100 3
#4400
b0 1
b0 b
#4410
b1 1
b1 b
b101 3
#4420
b0 1
b0 b
#4430
b1 1
b1 b
b110 3
#4440
b0 1
b0 b
#4450
b1 1
b1 b
b111 3
#4460
b0 1
b0 b
#4470
b1 1
b1 b
b1000 3
#4480
b0 1
b0 b
#4490
b1 1
b1 b
b1001 3
#4500
b0 1
b0 b
#4510
b1 1
b1 b
b1010 3
#4520
b0 1
b0 b
#4530
b1 1
b1 b
b1011 3
#4540
b0 1
b0 b
#4550
b1 1
b1 b
b1100 3
#4560
b0 1
b0 b
#4570
b1 1
b1 b
b1101 3
#4580
b0 1
b0 b
#4590
b1 1
b1 b
b1110 3
#4600
b0 1
b0 b
#4610
b1 1
b1 b
b1111 3
#4620
b0 1
b0 b
#4630
b1 1
b1 b
b10000 3
#4640
b0 1
b0 b
#4650
b1 1
b1 b
b10000100100 19
b1 18
b1 17
b10000100101 2
b10001 3
#4660
b0 1
b0 b
#4670
b1 1
b1 b
b10000100110 2
b10000100101 1a
b10 18
b10 17
b10010 3
#4680
b0 1
b0 b
#4690
b1 1
b1 b
b10000100111 2
b10000100110 1b
b11 18
b11 17
b10011 3
#4700
b0 1
b0 b
#4710
b1 1
b1 b
b10000101000 2
b10000100111 1c
b100 18
b100 17
b10100 3
#4720
b0 1
b0 b
#4730
b1 1
b1 b
b10000101001 2
b10000101000 1d
b101 18
b101 17
b10101 3
#4740
b0 1
b0 b
#4750
b1 1
b1 b
b10000101010 2
b10000101001 1e
b110 18
b10000101001 4
b110 23
b10000101001 0
b1000111 16
b0 17
b0 3
#4760
b0 1
b0 b
#4770
b1 1
b1 b
b1 3
#4780
b0 1
b0 b
#4790
b1 1
b1 b
b10 3
#4800
b0 1
b0 b
#4810
b1 1
b1 b
b11 3
#4820
b0 1
b0 b
#4830
b1 1
b1 b
b100 3
#4840
b0 1
b0 b
#4850
b1 1
b1 b
b101 3
#4860
b0 1
b0 b
#4870
b1 1
b1 b
b110 3
#4880
b0 1
b0 b
#4890
b1 1
b1 b
b111 3
#4900
b0 1
b0 b
#4910
b1 1
b1 b
b1000 3
#4920
b0 1
b0 b
#4930
b1 1
b1 b
b1001 3
#4940
b0 1
b0 b
#4950
b1 1
b1 b
b1010 3
#4960
b0 1
b0 b
#4970
b1 1
b1 b
b1011 3
#4980
b0 1
b0 b
#4990
b1 1
b1 b
b1100 3
#5000
b0 1
b0 b
#5010
b1 1
b1 b
b1101 3
#5020
b0 1
b0 b
#5030
b1 1
b1 b
b1110 3
#5040
b0 1
b0 b
#5050
b1 1
b1 b
b1111 3
#5060
b0 1
b0 b
#5070
b1 1
b1 b
b10000 3
#5080
b0 1
b0 b
#5090
b1 1
b1 b
b10000101010 1f
b111 18
b1 17
b10000101011 2
b10001 3
#5100
b0 1
b0 b
#5110
b1 1
b1 b
b10000101100 2
b10000101011 20
b1000 18
b10 17
b10010 3
#5120
b0 1
b0 b
#5130
b1 1
b1 b
b10000101101 2
b10000101100 21
b1001 18
b11 17
b10011 3
#5140
b0 1
b0 b
#5150
b1 1
b1 b
b10000101110 2
b10000101101 22
b0 18
b100 17
b10100 3
#5160
b0 1
b0 b
#5170
b1 1
b1 b
b10000101111 2
b10000101110 19
b1 18
b101 17
b10101 3
#5180
b0 1
b0 b
#5190
b1 1
b1 b
b10000110000 2
b10000101111 1a
b10 18
b10000101111 4
b10 23
b10000101111 0
b1001101 16
b0 17
b0 3
#5200
b0 1
b0 b
#5210
b1 1
b1 b
b1 3
#5220
b0 1
b0 b
#5230
b1 1
b1 b
b10 3
#5240
b0 1
b0 b
#5250
b1 1
b1 b
b11 3
#5260
b0 1
b0 b
#5270
b1 1
b1 b
b100 3
#5280
b0 1
b0 b
#5290
b1 1
b1 b
b101 3
#5300
b0 1
b0 b
#5310
b1 1
b1 b
b110 3
#5320
b0 1
b0 b
#5330
b1 1
b1 b
b111 3
#5340
b0 1
b0 b
#5350
b1 1
b1 b
b1000 3
#5360
b0 1
b0 b
#5370
b1 1
b1 b
b1001 3
#5380
b0 1
b0 b
#5390
b1 1
b1 b
b1010 3
#5400
b0 1
b0 b
#5410
b1 1
b1 b
b1011 3
#5420
b0 1
b0 b
#5430
b1 1
b1 b
b1100 3
#5440
b0 1
b0 b
#5450
b1 1
b1 b
b1101 3
#5460
b0 1
b0 b
#5470
b1 1
b1 b
b1110 3
#5480
b0 1
b0 b
#5490
b1 1
b1 b
b1111 3
#5500
b0 1
b0 b
#5510
b1 1
b1 b
b10000 3
#5520
b0 1
b0 b
#5530
b1 1
b1 b
b10000110000 1b
b11 18
b1 17
b10000110001 2
b10001 3
#5540
b0 1
b0 b
#5550
b1 1
b1 b
b10000110010 2
b10000110001 1c
b100 18
b10 17
b10010 3
#5560
b0 1
b0 b
#5570
b1 1
b1 b
b10000110011 2
b10000110010 1d
b101 18
b11 17
b10011 3
#5580
b0 1
b0 b
#5590
b1 1
b1 b
b10000110100 2
b10000110011 1e
b110 18
b100 17
b10100 3
#5600
b0 1
b0 b
#5610
b1 1
b1 b
b10000110101 2
b10000110100 1f
b111 18
b101 17
b10101 3
#5620
b0 1
b0 b
#5630
b1 1
b1 b
b10000110110 2
b10000110101 20
b1000 18
b10000110101 4
b1000 23
b10000110101 0
b1010011 16
b0 17
b0 3
#5640
b0 1
b0 b
#5650
b1 1
b1 b
b1 3
#5660
b0 1
b0 b
#5670
b1 1
b1 b
b10 3
#5680
b0 1
b0 b
#5690
b1 1
b1 b
b11 3
#5700
b0 1
b0 b
#5710
b1 1
b1 b
b100 3
#5720
b0 1
b0 b
#5730
b1 1
b1 b
b101 3
#5740
b0 1
b0 b
#5750
b1 1
b1 b
b110 3
#5760
b0 1
b0 b
#5770
b1 1
b1 b
b111 3
#5780
b0 1
b0 b
#5790
b1 1
b1 b
b1000 3
#5800
b0 1
b0 b
#5810
b1 1
b1 b
b1001 3
#5820
b0 1
b0 b
#5830
b1 1
b1 b
b1010 3
#5840
b0 1
b0 b
#5850
b1 1
b1 b
b1011 3
#5860
b0 1
b0 b
#5870
b1 1
b1 b
b1100 3
#5880
b0 1
b0 b
#5890
b1 1
b1 b
b1101 3
#5900
b0 1
b0 b
#5910
b1 1
b1 b
b1110 3
#5920
b0 1
b0 b
#5930
b1 1
b1 b
b1111 3
#5940
b0 1
b0 b
#5950
b1 1
b1 b
b10000 3
#5960
b0 1
b0 b
#5970
b1 1
b1 b
b10000110110 21
b1001 18
b1 17
b10000110111 2
b10001 3
#5980
b0 1
b0 b
#5990
b1 1
b1 b
b10000111000 2
b10000110111 22
b0 18
b10 17
b10010 3
#6000
b0 1
b0 b
#6010
b1 1
b1 b
b10000111001 2
b10000111000 19
b1 18
b11 17
b10011 3
#6020
b0 1
b0 b
#6030
b1 1
b1 b
b10000111010 2
b10000111001 1a
b10 18
b100 17
b10100 3
#6040
b0 1
b0 b
#6050
b1 1
b1 b
b10000111011 2
b10000111010 1b
b11 18
b101 17
b10101 3
#6060
b0 1
b0 b
#6070
b1 1
b1 b
b10000111100 2
b10000111011 1c
b100 18
b10000111011 4
b100 23
b10000111011 0
b1011001 16
b0 17
b0 3
#6080
b0 1
b0 b
#6090
b1 1
b1 b
b1 3
#6100
b0 1
b0 b
#6110
b1 1
b1 b
b10 3
#6120
b0 1
b0 b
#6130
b1 1
b1 b
b11 3
#6140
b0 1
b0 b
#6150
b1 1
b1 b
b100 3
#6160
b0 1
b0 b
#6170
b1 1
b1 b
b101 3
#6180
b0 1
b0 b
#6190
b1 1
b1 b
b110 3
#6200
b0 1
b0 b
#6210
b1 1
b1 b
b111 3
#6220
b0 1
b0 b
#6230
b1 1
b1 b
b1000 3
#6240
b0 1
b0 b
#6250
b1 1
b1 b
b1001 3
#6260
b0 1
b0 b
#6270
b1 1
b1 b
b1010 3
#6280
b0 1
b0 b
#6290
b1 1
b1 b
b1011 3
#6300
b0 1
b0 b
#6310
b1 1
b1 b
b1100 3
#6320
b0 1
b0 b
#6330
b1 1
b1 b
b1101 3
#6340
b0 1
b0 b
#6350
b1 1
b1 b
b1110 3
#6360
b0 1
b0 b
#6370
b1 1
b1 b
b1111 3
#6380
b0 1
b0 b
#6390
b1 1
b1 b
b10000 3
#6400
b0 1
b0 b
#6410
b1 1
b1 b
b10000111100 1d
b101 18
b1 17
b10000111101 2
b10001 3
#6420
b0 1
b0 b
#6430
b1 1
b1 b
b10000111110 2
b10000111101 1e
b110 18
b10 17
b10010 3
#6440
b0 1
b0 b
#6450
b1 1
b1 b
b10000111111 2
b10000111110 1f
b111 18
b11 17
b10011 3
#6460
b0 1
b0 b
#6470
b1 1
b1 b
b10001000000 2
b10000111111 20
b1000 18
b100 17
b10100 3
#6480
b0 1
b0 b
#6490
b1 1
b1 b
b10001000001 2
b10001000000 21
b1001 18
b101 17
b10101 3
#6500
b0 1
b0 b
#6510
b1 1
b1 b
b10001000010 2
b10001000001 22
b0 18
b10001000001 4
b0 23
b10001000001 0
b1011111 16
b0 17
b0 3
#6520
b0 1
b0 b
#6530
b1 1
b1 b
b1 3
#6540
b0 1
b0 b
#6550
b1 1
b1 b
b10 3
#6560
b0 1
b0 b
#6570
b1 1
b1 b
b11 3
#6580
b0 1
b0 b
#6590
b1 1
b1 b
b100 3
#6600
b0 1
b0 b
#6610
b1 1
b1 b
b101 3
#6620
b0 1
b0 b
#6630
b1 1
b1 b
b110 3
#6640
b0 1
b0 b
#6650
b1 1
b1 b
b111 3
#6660
b0 1
b0 b
#6670
b1 1
b1 b
b1000 3
#6680
b0 1
b0 b
#6690
b1 1
b1 b
b1001 3
#6700
b0 1
b0 b
#6710
b1 1
b1 b
b1010 3
#6720
b0 1
b0 b
#6730
b1 1
b1 b
b1011 3
#6740
b0 1
b0 b
