test.vcd
$date today $end
$timescale 1 ns $end
$scope module  $end
$scope module tb1 $end
$var integer 32 1 data $end
$scope module clkgen $end
$var integer 32 0 clk $end
$upscope $end
$upscope $end
$upscope $end
$enddefinitions $end
#0
$dumpvars
b0 0
b101 1
$end
#30
b1 0
b110 1
#40
b0 0
#50
b1 0
b111 1
#60
b0 0
#70
b1 0
b1000 1
#80
b0 0
#90
b1 0
b1001 1
#100
b0 0
#110
b1 0
b1010 1
#120
b0 0
#130
b1 0
b1011 1
#140
b0 0
#150
b1 0
b1100 1
#160
b0 0
#170
b1 0
b1101 1
#180
b0 0
#190
b1 0
b1110 1
#200
b0 0
#210
b1 0
b1111 1
#220
b0 0
#230
b1 0
b10000 1
#240
b0 0
#250
b1 0
b10001 1
#260
b0 0
#270
b1 0
b10010 1
#280
b0 0
#290
b1 0
b10011 1
#300
b0 0
#310
b1 0
b10100 1
#320
b0 0
#330
b1 0
b10101 1
#340
b0 0
#350
b1 0
b10110 1
#360
b0 0
#370
b1 0
b10111 1
#380
b0 0
#390
b1 0
b11000 1
#400
b0 0
#410
b1 0
b11001 1
#420
b0 0
#430
b1 0
b11010 1
#440
b0 0
#450
b1 0
b11011 1
#460
b0 0
#470
b1 0
b11100 1
#480
b0 0
#490
b1 0
b11101 1
#500
b0 0
#510
b1 0
b11110 1
#520
b0 0
#530
b1 0
b11111 1
#540
b0 0
#550
b1 0
b100000 1
#560
b0 0
#570
b1 0
b100001 1
#580
b0 0
#590
b1 0
b100010 1
#600
b0 0
#610
b1 0
b100011 1
#620
b0 0
#630
b1 0
b100100 1
#640
b0 0
#650
b1 0
b100101 1
#660
b0 0
#670
b1 0
b100110 1
#680
b0 0
#690
b1 0
b100111 1
#700
b0 0
#710
b1 0
b101000 1
#720
b0 0
#730
b1 0
b101001 1
#740
b0 0
#750
b1 0
b101010 1
#760
b0 0
#770
b1 0
b101011 1
#780
b0 0
#790
b1 0
b101100 1
#800
b0 0
#810
b1 0
b101101 1
#820
b0 0
#830
b1 0
b101110 1
#840
b0 0
#850
b1 0
b101111 1
#860
b0 0
#870
b1 0
b110000 1
#880
b0 0
#890
b1 0
b110001 1
#900
b0 0
#910
b1 0
b110010 1
#920
b0 0
#930
b1 0
b110011 1
#940
b0 0
#950
b1 0
b110100 1
#960
b0 0
#970
b1 0
b110101 1
#980
b0 0
#990
b1 0
b110110 1
#1000
b0 0
#1010
b1 0
b110111 1
#1020
b0 0
#1030
b1 0
b111000 1
#1040
b0 0
#1050
b1 0
b111001 1
#1060
b0 0
#1070
b1 0
b111010 1
#1080
b0 0
#1090
b1 0
b111011 1
#1100
b0 0
#1110
b1 0
b111100 1
#1120
b0 0
#1130
b1 0
b111101 1
#1140
b0 0
#1150
b1 0
b111110 1
#1160
b0 0
#1170
b1 0
b111111 1
#1180
b0 0
#1190
b1 0
b1000000 1
#1200
b0 0
#1210
b1 0
b1000001 1
#1220
b0 0
#1230
b1 0
b1000010 1
#1240
b0 0
#1250
b1 0
b1000011 1
#1260
b0 0
#1270
b1 0
b1000100 1
#1280
b0 0
#1290
b1 0
b1000101 1
#1300
b0 0
#1310
b1 0
b1000110 1
#1320
b0 0
#1330
b1 0
b1000111 1
#1340
b0 0
#1350
b1 0
b1001000 1
#1360
b0 0
#1370
b1 0
b1001001 1
#1380
b0 0
#1390
b1 0
b1001010 1
#1400
b0 0
#1410
b1 0
b1001011 1
#1420
b0 0
#1430
b1 0
b1001100 1
#1440
b0 0
#1450
b1 0
b1001101 1
#1460
b0 0
#1470
b1 0
b1001110 1
#1480
b0 0
#1490
b1 0
b1001111 1
#1500
b0 0
#1510
b1 0
b1010000 1
#1520
b0 0
#1530
b1 0
b1010001 1
#1540
b0 0
#1550
b1 0
b1010010 1
#1560
b0 0
#1570
b1 0
b1010011 1
#1580
b0 0
#1590
b1 0
b1010100 1
#1600
b0 0
#1610
b1 0
b1010101 1
#1620
b0 0
#1630
b1 0
b1010110 1
#1640
b0 0
#1650
b1 0
b1010111 1
#1660
b0 0
#1670
b1 0
b1011000 1
#1680
b0 0
#1690
b1 0
b1011001 1
#1700
b0 0
#1710
b1 0
b1011010 1
#1720
b0 0
#1730
b1 0
b1011011 1
#1740
b0 0
#1750
b1 0
b1011100 1
#1760
b0 0
#1770
b1 0
b1011101 1
#1780
b0 0
#1790
b1 0
b1011110 1
#1800
b0 0
#1810
b1 0
b1011111 1
#1820
b0 0
#1830
b1 0
b1100000 1
#1840
b0 0
#1850
b1 0
b1100001 1
#1860
b0 0
#1870
b1 0
b1100010 1
#1880
b0 0
#1890
b1 0
b1100011 1
#1900
b0 0
#1910
b1 0
b1100100 1
#1920
b0 0
#1930
b1 0
b1100101 1
#1940
b0 0
#1950
b1 0
b1100110 1
#1960
b0 0
#1970
b1 0
b1100111 1
#1980
b0 0
#1990
b1 0
b1101000 1
#2000
b0 0
#2010
b1 0
b1101001 1
#2020
b0 0
#2030
b1 0
b1101010 1
#2040
b0 0
#2050
b1 0
b1101011 1
#2060
b0 0
#2070
b1 0
b1101100 1
#2080
b0 0
#2090
b1 0
b1101101 1
#2100
b0 0
#2110
b1 0
b1101110 1
#2120
b0 0
#2130
b1 0
b1101111 1
#2140
b0 0
#2150
b1 0
b1110000 1
#2160
b0 0
#2170
b1 0
b1110001 1
#2180
b0 0
#2190
b1 0
b1110010 1
#2200
b0 0
#2210
b1 0
b1110011 1
#2220
b0 0
#2230
b1 0
b1110100 1
#2240
b0 0
#2250
b1 0
b1110101 1
#2260
b0 0
#2270
b1 0
b1110110 1
#2280
b0 0
#2290
b1 0
b1110111 1
#2300
b0 0
#2310
b1 0
b1111000 1
#2320
b0 0
#2330
b1 0
b1111001 1
#2340
b0 0
#2350
b1 0
b1111010 1
#2360
b0 0
#2370
b1 0
b1111011 1
#2380
b0 0
#2390
b1 0
b1111100 1
#2400
b0 0
#2410
b1 0
b1111101 1
#2420
b0 0
#2430
b1 0
b1111110 1
#2440
b0 0
#2450
b1 0
b1111111 1
#2460
b0 0
#2470
b1 0
b10000000 1
#2480
b0 0
#2490
b1 0
b10000001 1
#2500
b0 0
#2510
b1 0
b10000010 1
#2520
b0 0
#2530
b1 0
b10000011 1
#2540
b0 0
#2550
b1 0
b10000100 1
#2560
b0 0
#2570
b1 0
b10000101 1
#2580
b0 0
#2590
b1 0
b10000110 1
#2600
b0 0
#2610
b1 0
b10000111 1
#2620
b0 0
#2630
b1 0
b10001000 1
#2640
b0 0
#2650
b1 0
b10001001 1
#2660
b0 0
#2670
b1 0
b10001010 1
#2680
b0 0
#2690
b1 0
b10001011 1
#2700
b0 0
#2710
b1 0
b10001100 1
#2720
b0 0
#2730
b1 0
b10001101 1
#2740
b0 0
#2750
b1 0
b10001110 1
#2760
b0 0
#2770
b1 0
b10001111 1
#2780
b0 0
#2790
b1 0
b10010000 1
#2800
b0 0
#2810
b1 0
b10010001 1
#2820
b0 0
#2830
b1 0
b10010010 1
#2840
b0 0
#2850
b1 0
b10010011 1
#2860
b0 0
#2870
b1 0
b10010100 1
#2880
b0 0
#2890
b1 0
b10010101 1
#2900
b0 0
#2910
b1 0
b10010110 1
#2920
b0 0
#2930
b1 0
b10010111 1
#2940
b0 0
#2950
b1 0
b10011000 1
#2960
b0 0
#2970
b1 0
b10011001 1
#2980
b0 0
#2990
b1 0
b10011010 1
#3000
b0 0
#3010
b1 0
b10011011 1
#3020
b0 0
#3030
b1 0
b10011100 1
#3040
b0 0
#3050
b1 0
b10011101 1
#3060
b0 0
#3070
b1 0
b10011110 1
#3080
b0 0
#3090
b1 0
b10011111 1
#3100
b0 0
#3110
b1 0
b10100000 1
#3120
b0 0
#3130
b1 0
b10100001 1
#3140
b0 0
#3150
b1 0
b10100010 1
#3160
b0 0
#3170
b1 0
b10100011 1
#3180
b0 0
#3190
b1 0
b10100100 1
#3200
b0 0
#3210
b1 0
b10100101 1
#3220
b0 0
#3230
b1 0
b10100110 1
#3240
b0 0
#3250
b1 0
b10100111 1
#3260
b0 0
#3270
b1 0
b10101000 1
#3280
b0 0
#3290
b1 0
b10101001 1
#3300
b0 0
#3310
b1 0
b10101010 1
#3320
b0 0
#3330
b1 0
b10101011 1
#3340
b0 0
#3350
b1 0
b10101100 1
#3360
b0 0
#3370
b1 0
b10101101 1
#3380
b0 0
#3390
b1 0
b10101110 1
#3400
b0 0
#3410
b1 0
b10101111 1
#3420
b0 0
#3430
b1 0
b10110000 1
#3440
b0 0
#3450
b1 0
b10110001 1
#3460
b0 0
#3470
b1 0
b10110010 1
#3480
b0 0
#3490
b1 0
b10110011 1
#3500
b0 0
#3510
b1 0
b10110100 1
#3520
b0 0
#3530
b1 0
b10110101 1
#3540
b0 0
#3550
b1 0
b10110110 1
#3560
b0 0
#3570
b1 0
b10110111 1
#3580
b0 0
#3590
b1 0
b10111000 1
#3600
b0 0
#3610
b1 0
b10111001 1
#3620
b0 0
#3630
b1 0
b10111010 1
#3640
b0 0
#3650
b1 0
b10111011 1
#3660
b0 0
#3670
b1 0
b10111100 1
#3680
b0 0
#3690
b1 0
b10111101 1
#3700
b0 0
#3710
b1 0
b10111110 1
#3720
b0 0
#3730
b1 0
b10111111 1
#3740
b0 0
#3750
b1 0
b11000000 1
#3760
b0 0
#3770
b1 0
b11000001 1
#3780
b0 0
#3790
b1 0
b11000010 1
#3800
b0 0
#3810
b1 0
b11000011 1
#3820
b0 0
#3830
b1 0
b11000100 1
#3840
b0 0
#3850
b1 0
b11000101 1
#3860
b0 0
#3870
b1 0
b11000110 1
#3880
b0 0
#3890
b1 0
b11000111 1
#3900
b0 0
#3910
b1 0
b11001000 1
#3920
b0 0
#3930
b1 0
b11001001 1
#3940
b0 0
#3950
b1 0
b11001010 1
#3960
b0 0
#3970
b1 0
b11001011 1
#3980
b0 0
#3990
b1 0
b11001100 1
#4000
b0 0
#4010
b1 0
b11001101 1
#4020
b0 0
#4030
b1 0
b11001110 1
#4040
b0 0
#4050
b1 0
b11001111 1
#4060
b0 0
#4070
b1 0
b11010000 1
#4080
b0 0
#4090
b1 0
b11010001 1
#4100
b0 0
#4110
b1 0
b11010010 1
#4120
b0 0
#4130
b1 0
b11010011 1
#4140
b0 0
#4150
b1 0
b11010100 1
#4160
b0 0
#4170
b1 0
b11010101 1
#4180
b0 0
#4190
b1 0
b11010110 1
#4200
b0 0
#4210
b1 0
b11010111 1
#4220
b0 0
#4230
b1 0
b11011000 1
#4240
b0 0
#4250
b1 0
b11011001 1
#4260
b0 0
#4270
b1 0
b11011010 1
#4280
b0 0
#4290
b1 0
b11011011 1
#4300
b0 0
#4310
b1 0
b11011100 1
#4320
b0 0
#4330
b1 0
b11011101 1
#4340
b0 0
#4350
b1 0
b11011110 1
#4360
b0 0
#4370
b1 0
b11011111 1
#4380
b0 0
#4390
b1 0
b11100000 1
#4400
b0 0
#4410
b1 0
b11100001 1
#4420
b0 0
#4430
b1 0
b11100010 1
#4440
b0 0
#4450
b1 0
b11100011 1
#4460
b0 0
#4470
b1 0
b11100100 1
#4480
b0 0
#4490
b1 0
b11100101 1
#4500
b0 0
#4510
b1 0
b11100110 1
#4520
b0 0
#4530
b1 0
b11100111 1
#4540
b0 0
#4550
b1 0
b11101000 1
#4560
b0 0
#4570
b1 0
b11101001 1
#4580
b0 0
#4590
b1 0
b11101010 1
#4600
b0 0
#4610
b1 0
b11101011 1
#4620
b0 0
#4630
b1 0
b11101100 1
#4640
b0 0
#4650
b1 0
b11101101 1
#4660
b0 0
#4670
b1 0
b11101110 1
#4680
b0 0
#4690
b1 0
b11101111 1
#4700
b0 0
#4710
b1 0
b11110000 1
#4720
b0 0
#4730
b1 0
b11110001 1
#4740
b0 0
#4750
b1 0
b11110010 1
#4760
b0 0
#4770
b1 0
b11110011 1
#4780
b0 0
#4790
b1 0
b11110100 1
#4800
b0 0
#4810
b1 0
b11110101 1
#4820
b0 0
#4830
b1 0
b11110110 1
#4840
b0 0
#4850
b1 0
b11110111 1
#4860
b0 0
#4870
b1 0
b11111000 1
#4880
b0 0
#4890
b1 0
b11111001 1
#4900
b0 0
#4910
b1 0
b11111010 1
#4920
b0 0
#4930
b1 0
b11111011 1
#4940
b0 0
#4950
b1 0
b11111100 1
#4960
b0 0
#4970
b1 0
b11111101 1
#4980
b0 0
#4990
b1 0
b11111110 1
#5000
b0 0
#5010
b1 0
b11111111 1
#5020
b0 0
#5030
b1 0
b100000000 1
#5040
b0 0
#5050
b1 0
b100000001 1
#5060
b0 0
#5070
b1 0
b100000010 1
#5080
b0 0
#5090
b1 0
b100000011 1
#5100
b0 0
#5110
b1 0
b100000100 1
#5120
b0 0
#5130
b1 0
b100000101 1
#5140
b0 0
#5150
b1 0
b100000110 1
#5160
b0 0
#5170
b1 0
b100000111 1
#5180
b0 0
#5190
b1 0
b100001000 1
#5200
b0 0
#5210
b1 0
b100001001 1
#5220
b0 0
#5230
b1 0
b100001010 1
#5240
b0 0
#5250
b1 0
b100001011 1
#5260
b0 0
#5270
b1 0
b100001100 1
#5280
b0 0
#5290
b1 0
b100001101 1
#5300
b0 0
#5310
b1 0
b100001110 1
#5320
b0 0
#5330
b1 0
b100001111 1
#5340
b0 0
#5350
b1 0
b100010000 1
#5360
b0 0
#5370
b1 0
b100010001 1
#5380
b0 0
#5390
b1 0
b100010010 1
#5400
b0 0
#5410
b1 0
b100010011 1
#5420
b0 0
#5430
b1 0
b100010100 1
#5440
b0 0
#5450
b1 0
b100010101 1
#5460
b0 0
#5470
b1 0
b100010110 1
#5480
b0 0
#5490
b1 0
b100010111 1
#5500
b0 0
#5510
b1 0
b100011000 1
#5520
b0 0
#5530
b1 0
b100011001 1
#5540
b0 0
#5550
b1 0
b100011010 1
#5560
b0 0
#5570
b1 0
b100011011 1
#5580
b0 0
#5590
b1 0
b100011100 1
#5600
b0 0
#5610
b1 0
b100011101 1
#5620
b0 0
#5630
b1 0
b100011110 1
#5640
b0 0
#5650
b1 0
b100011111 1
#5660
b0 0
#5670
b1 0
b100100000 1
#5680
b0 0
#5690
b1 0
b100100001 1
#5700
b0 0
#5710
b1 0
b100100010 1
#5720
b0 0
#5730
b1 0
b100100011 1
#5740
b0 0
#5750
b1 0
b100100100 1
#5760
b0 0
#5770
b1 0
b100100101 1
#5780
b0 0
#5790
b1 0
b100100110 1
#5800
b0 0
#5810
b1 0
b100100111 1
#5820
b0 0
#5830
b1 0
b100101000 1
#5840
b0 0
#5850
b1 0
b100101001 1
#5860
b0 0
#5870
b1 0
b100101010 1
#5880
b0 0
#5890
b1 0
b100101011 1
#5900
b0 0
#5910
b1 0
b100101100 1
#5920
b0 0
#5930
b1 0
b100101101 1
#5940
b0 0
#5950
b1 0
b100101110 1
#5960
b0 0
#5970
b1 0
b100101111 1
#5980
b0 0
#5990
b1 0
b100110000 1
#6000
b0 0
#6010
b1 0
b100110001 1
#6020
b0 0
#6030
b1 0
b100110010 1
#6040
b0 0
#6050
b1 0
b100110011 1
#6060
b0 0
#6070
b1 0
b100110100 1
#6080
b0 0
#6090
b1 0
b100110101 1
#6100
b0 0
#6110
b1 0
b100110110 1
#6120
b0 0
#6130
b1 0
b100110111 1
#6140
b0 0
#6150
b1 0
b100111000 1
#6160
b0 0
#6170
b1 0
b100111001 1
#6180
b0 0
#6190
b1 0
b100111010 1
#6200
b0 0
#6210
b1 0
b100111011 1
#6220
b0 0
#6230
b1 0
b100111100 1
#6240
b0 0
#6250
b1 0
b100111101 1
#6260
b0 0
#6270
b1 0
b100111110 1
#6280
b0 0
#6290
b1 0
b100111111 1
#6300
b0 0
#6310
b1 0
b101000000 1
#6320
b0 0
#6330
b1 0
b101000001 1
#6340
b0 0
#6350
b1 0
b101000010 1
#6360
b0 0
#6370
b1 0
b101000011 1
#6380
b0 0
#6390
b1 0
b101000100 1
#6400
b0 0
#6410
b1 0
b101000101 1
#6420
b0 0
#6430
b1 0
b101000110 1
#6440
b0 0
#6450
b1 0
b101000111 1
#6460
b0 0
#6470
b1 0
b101001000 1
#6480
b0 0
#6490
b1 0
b101001001 1
#6500
b0 0
#6510
b1 0
b101001010 1
#6520
b0 0
#6530
b1 0
b101001011 1
#6540
b0 0
#6550
b1 0
b101001100 1
#6560
b0 0
#6570
b1 0
b101001101 1
#6580
b0 0
#6590
b1 0
b101001110 1
#6600
b0 0
#6610
b1 0
b101001111 1
#6620
b0 0
#6630
b1 0
b101010000 1
#6640
b0 0
#6650
b1 0
b101010001 1
#6660
b0 0
#6670
b1 0
b101010010 1
#6680
b0 0
#6690
b1 0
b101010011 1
#6700
b0 0
#6710
b1 0
b101010100 1
#6720
b0 0
#6730
b1 0
b101010101 1
#6740
b0 0
#6750
b1 0
b101010110 1
#6760
b0 0
#6770
b1 0
b101010111 1
#6780
b0 0
#6790
b1 0
b101011000 1
#6800
b0 0
#6810
b1 0
b101011001 1
#6820
b0 0
#6830
b1 0
b101011010 1
#6840
b0 0
#6850
b1 0
b101011011 1
#6860
b0 0
#6870
b1 0
b101011100 1
#6880
b0 0
#6890
b1 0
b101011101 1
#6900
b0 0
#6910
b1 0
b101011110 1
#6920
b0 0
#6930
b1 0
b101011111 1
#6940
b0 0
#6950
b1 0
b101100000 1
#6960
b0 0
#6970
b1 0
b101100001 1
#6980
b0 0
#6990
b1 0
b101100010 1
#7000
b0 0
#7010
b1 0
b101100011 1
#7020
b0 0
#7030
b1 0
b101100100 1
#7040
b0 0
#7050
b1 0
b101100101 1
#7060
b0 0
#7070
b1 0
b101100110 1
#7080
b0 0
#7090
b1 0
b101100111 1
#7100
b0 0
#7110
b1 0
b101101000 1
#7120
b0 0
#7130
b1 0
b101101001 1
#7140
b0 0
#7150
b1 0
b101101010 1
#7160
b0 0
#7170
b1 0
b101101011 1
#7180
b0 0
#7190
b1 0
b101101100 1
#7200
b0 0
#7210
b1 0
b101101101 1
#7220
b0 0
#7230
b1 0
b101101110 1
#7240
b0 0
#7250
b1 0
b101101111 1
#7260
b0 0
#7270
b1 0
b101110000 1
#7280
b0 0
#7290
b1 0
b101110001 1
#7300
b0 0
#7310
b1 0
b101110010 1
#7320
b0 0
#7330
b1 0
b101110011 1
#7340
b0 0
#7350
b1 0
b101110100 1
#7360
b0 0
#7370
b1 0
b101110101 1
#7380
b0 0
#7390
b1 0
b101110110 1
#7400
b0 0
#7410
b1 0
b101110111 1
#7420
b0 0
#7430
b1 0
b101111000 1
#7440
b0 0
#7450
b1 0
b101111001 1
#7460
b0 0
#7470
b1 0
b101111010 1
#7480
b0 0
#7490
b1 0
b101111011 1
#7500
b0 0
#7510
b1 0
b101111100 1
#7520
b0 0
#7530
b1 0
b101111101 1
#7540
b0 0
#7550
b1 0
b101111110 1
#7560
b0 0
#7570
b1 0
b101111111 1
#7580
b0 0
#7590
b1 0
b110000000 1
#7600
b0 0
#7610
b1 0
b110000001 1
#7620
b0 0
#7630
b1 0
b110000010 1
#7640
b0 0
#7650
b1 0
b110000011 1
#7660
b0 0
#7670
b1 0
b110000100 1
#7680
b0 0
#7690
b1 0
b110000101 1
#7700
b0 0
#7710
b1 0
b110000110 1
#7720
b0 0
#7730
b1 0
b110000111 1
#7740
b0 0
#7750
b1 0
b110001000 1
#7760
b0 0
#7770
b1 0
b110001001 1
#7780
b0 0
#7790
b1 0
b110001010 1
#7800
b0 0
#7810
b1 0
b110001011 1
#7820
b0 0
#7830
b1 0
b110001100 1
#7840
b0 0
#7850
b1 0
b110001101 1
#7860
b0 0
#7870
b1 0
b110001110 1
#7880
b0 0
#7890
b1 0
b110001111 1
#7900
b0 0
#7910
b1 0
b110010000 1
#7920
b0 0
#7930
b1 0
b110010001 1
#7940
b0 0
#7950
b1 0
b110010010 1
#7960
b0 0
#7970
b1 0
b110010011 1
#7980
b0 0
#7990
b1 0
b110010100 1
#8000
b0 0
#8010
b1 0
b110010101 1
#8020
b0 0
#8030
b1 0
b110010110 1
#8040
b0 0
#8050
b1 0
b110010111 1
#8060
b0 0
#8070
b1 0
b110011000 1
#8080
b0 0
#8090
b1 0
b110011001 1
#8100
b0 0
#8110
b1 0
b110011010 1
#8120
b0 0
#8130
b1 0
b110011011 1
#8140
b0 0
#8150
b1 0
b110011100 1
#8160
b0 0
#8170
b1 0
b110011101 1
#8180
b0 0
#8190
b1 0
b110011110 1
#8200
b0 0
#8210
b1 0
b110011111 1
#8220
b0 0
#8230
b1 0
b110100000 1
#8240
b0 0
#8250
b1 0
b110100001 1
#8260
b0 0
#8270
b1 0
b110100010 1
#8280
b0 0
#8290
b1 0
b110100011 1
#8300
b0 0
#8310
b1 0
b110100100 1
#8320
b0 0
#8330
b1 0
b110100101 1
#8340
b0 0
#8350
b1 0
b110100110 1
#8360
b0 0
#8370
b1 0
b110100111 1
#8380
b0 0
#8390
b1 0
b110101000 1
#8400
b0 0
#8410
b1 0
b110101001 1
#8420
b0 0
#8430
b1 0
b110101010 1
#8440
b0 0
#8450
b1 0
b110101011 1
#8460
b0 0
#8470
b1 0
b110101100 1
#8480
b0 0
#8490
b1 0
b110101101 1
#8500
b0 0
#8510
b1 0
b110101110 1
#8520
b0 0
#8530
b1 0
b110101111 1
#8540
b0 0
#8550
b1 0
b110110000 1
#8560
b0 0
#8570
b1 0
b110110001 1
#8580
b0 0
#8590
b1 0
b110110010 1
#8600
b0 0
#8610
b1 0
b110110011 1
#8620
b0 0
#8630
b1 0
b110110100 1
#8640
b0 0
#8650
b1 0
b110110101 1
#8660
b0 0
#8670
b1 0
b110110110 1
#8680
b0 0
#8690
b1 0
b110110111 1
#8700
b0 0
#8710
b1 0
b110111000 1
#8720
b0 0
#8730
b1 0
b110111001 1
#8740
b0 0
#8750
b1 0
b110111010 1
#8760
b0 0
#8770
b1 0
b110111011 1
#8780
b0 0
#8790
b1 0
b110111100 1
#8800
b0 0
#8810
b1 0
b110111101 1
#8820
b0 0
#8830
b1 0
b110111110 1
#8840
b0 0
#8850
b1 0
b110111111 1
#8860
b0 0
#8870
b1 0
b111000000 1
#8880
b0 0
#8890
b1 0
b111000001 1
#8900
b0 0
#8910
b1 0
b111000010 1
#8920
b0 0
#8930
b1 0
b111000011 1
#8940
b0 0
#8950
b1 0
b111000100 1
#8960
b0 0
#8970
b1 0
b111000101 1
#8980
b0 0
#8990
b1 0
b111000110 1
#9000
b0 0
#9010
b1 0
b111000111 1
#9020
b0 0
#9030
b1 0
b111001000 1
#9040
b0 0
#9050
b1 0
b111001001 1
#9060
b0 0
#9070
b1 0
b111001010 1
#9080
b0 0
#9090
b1 0
b111001011 1
#9100
b0 0
#9110
b1 0
b111001100 1
#9120
b0 0
#9130
b1 0
b111001101 1
#9140
b0 0
#9150
b1 0
b111001110 1
#9160
b0 0
#9170
b1 0
b111001111 1
#9180
b0 0
#9190
b1 0
b111010000 1
#9200
b0 0
#9210
b1 0
b111010001 1
#9220
b0 0
#9230
b1 0
b111010010 1
#9240
b0 0
#9250
b1 0
b111010011 1
#9260
b0 0
#9270
b1 0
b111010100 1
#9280
b0 0
#9290
b1 0
b111010101 1
#9300
b0 0
#9310
b1 0
b111010110 1
#9320
b0 0
#9330
b1 0
b111010111 1
#9340
b0 0
#9350
b1 0
b111011000 1
#9360
b0 0
#9370
b1 0
b111011001 1
#9380
b0 0
#9390
b1 0
b111011010 1
#9400
b0 0
#9410
b1 0
b111011011 1
#9420
b0 0
#9430
b1 0
b111011100 1
#9440
b0 0
#9450
b1 0
b111011101 1
#9460
b0 0
#9470
b1 0
b111011110 1
#9480
b0 0
#9490
b1 0
b111011111 1
#9500
b0 0
#9510
b1 0
b111100000 1
#9520
b0 0
#9530
b1 0
b111100001 1
#9540
b0 0
#9550
b1 0
b111100010 1
#9560
b0 0
#9570
b1 0
b111100011 1
#9580
b0 0
#9590
b1 0
b111100100 1
#9600
b0 0
#9610
b1 0
b111100101 1
#9620
b0 0
#9630
b1 0
b111100110 1
#9640
b0 0
#9650
b1 0
b111100111 1
#9660
b0 0
#9670
b1 0
b111101000 1
#9680
b0 0
#9690
b1 0
b111101001 1
#9700
b0 0
#9710
b1 0
b111101010 1
#9720
b0 0
#9730
b1 0
b111101011 1
#9740
b0 0
#9750
b1 0
b111101100 1
#9760
b0 0
#9770
b1 0
b111101101 1
#9780
b0 0
#9790
b1 0
b111101110 1
#9800
b0 0
#9810
b1 0
b111101111 1
#9820
b0 0
#9830
b1 0
b111110000 1
#9840
b0 0
#9850
b1 0
b111110001 1
#9860
b0 0
#9870
b1 0
b111110010 1
#9880
b0 0
#9890
b1 0
b111110011 1
#9900
b0 0
#9910
b1 0
b111110100 1
#9920
b0 0
#9930
b1 0
b111110101 1
#9940
b0 0
#9950
b1 0
b111110110 1
#9960
b0 0
#9970
b1 0
b111110111 1
#9980
b0 0
#9990
b1 0
b111111000 1
#10000
b0 0
#10010
b1 0
b111111001 1
#10020
b0 0
#10030
b1 0
b111111010 1
#10040
b0 0
#10050
b1 0
b111111011 1
#10060
b0 0
#10070
b1 0
b111111100 1
#10080
b0 0
#10090
b1 0
b111111101 1
#10100
b0 0
#10110
b1 0
b111111110 1
#10120
b0 0
#10130
b1 0
b111111111 1
#10140
b0 0
#10150
b1 0
b1000000000 1
#10160
b0 0
#10170
b1 0
b1000000001 1
#10180
b0 0
#10190
b1 0
b1000000010 1
#10200
b0 0
#10210
b1 0
b1000000011 1
#10220
b0 0
#10230
b1 0
b1000000100 1
#10240
b0 0
#10250
b1 0
b1000000101 1
#10260
b0 0
#10270
b1 0
b1000000110 1
#10280
b0 0
#10290
b1 0
b1000000111 1
#10300
b0 0
#10310
b1 0
b1000001000 1
#10320
b0 0
#10330
b1 0
b1000001001 1
#10340
b0 0
#10350
b1 0
b1000001010 1
#10360
b0 0
#10370
b1 0
b1000001011 1
#10380
b0 0
#10390
b1 0
b1000001100 1
#10400
b0 0
#10410
b1 0
b1000001101 1
#10420
b0 0
#10430
b1 0
b1000001110 1
#10440
b0 0
#10450
b1 0
b1000001111 1
#10460
b0 0
#10470
b1 0
b1000010000 1
#10480
b0 0
#10490
b1 0
b1000010001 1
#10500
b0 0
#10510
b1 0
b1000010010 1
#10520
b0 0
#10530
b1 0
b1000010011 1
#10540
b0 0
#10550
b1 0
b1000010100 1
#10560
b0 0
#10570
b1 0
b1000010101 1
#10580
b0 0
#10590
b1 0
b1000010110 1
#10600
b0 0
#10610
b1 0
b1000010111 1
#10620
b0 0
#10630
b1 0
b1000011000 1
#10640
b0 0
#10650
b1 0
b1000011001 1
#10660
b0 0
#10670
b1 0
b1000011010 1
#10680
b0 0
#10690
b1 0
b1000011011 1
#10700
b0 0
#10710
b1 0
b1000011100 1
#10720
b0 0
#10730
b1 0
b1000011101 1
#10740
b0 0
#10750
b1 0
b1000011110 1
#10760
b0 0
#10770
b1 0
b1000011111 1
#10780
b0 0
#10790
b1 0
b1000100000 1
#10800
b0 0
#10810
b1 0
b1000100001 1
#10820
b0 0
#10830
b1 0
b1000100010 1
#10840
b0 0
#10850
b1 0
b1000100011 1
#10860
b0 0
#10870
b1 0
b1000100100 1
#10880
b0 0
#10890
b1 0
b1000100101 1
#10900
b0 0
#10910
b1 0
b1000100110 1
#10920
b0 0
#10930
b1 0
b1000100111 1
#10940
b0 0
#10950
b1 0
b1000101000 1
#10960
b0 0
#10970
b1 0
b1000101001 1
#10980
b0 0
#10990
b1 0
b1000101010 1
#11000
b0 0
#11010
b1 0
b1000101011 1
#11020
b0 0
#11030
b1 0
b1000101100 1
#11040
b0 0
#11050
b1 0
b1000101101 1
#11060
b0 0
#11070
b1 0
b1000101110 1
#11080
b0 0
#11090
b1 0
b1000101111 1
#11100
b0 0
#11110
b1 0
b1000110000 1
#11120
b0 0
#11130
b1 0
b1000110001 1
#11140
b0 0
#11150
b1 0
b1000110010 1
#11160
b0 0
#11170
b1 0
b1000110011 1
#11180
b0 0
#11190
b1 0
b1000110100 1
#11200
b0 0
#11210
b1 0
b1000110101 1
#11220
b0 0
#11230
b1 0
b1000110110 1
#11240
b0 0
#11250
b1 0
b1000110111 1
#11260
b0 0
#11270
b1 0
b1000111000 1
#11280
b0 0
#11290
b1 0
b1000111001 1
#11300
b0 0
#11310
b1 0
b1000111010 1
#11320
b0 0
#11330
b1 0
b1000111011 1
#11340
b0 0
#11350
b1 0
b1000111100 1
#11360
b0 0
#11370
b1 0
b1000111101 1
#11380
b0 0
#11390
b1 0
b1000111110 1
#11400
b0 0
#11410
b1 0
b1000111111 1
#11420
b0 0
#11430
b1 0
b1001000000 1
#11440
b0 0
#11450
b1 0
b1001000001 1
#11460
b0 0
#11470
b1 0
b1001000010 1
#11480
b0 0
#11490
b1 0
b1001000011 1
#11500
b0 0
#11510
b1 0
b1001000100 1
#11520
b0 0
#11530
b1 0
b1001000101 1
#11540
b0 0
#11550
b1 0
b1001000110 1
#11560
b0 0
#11570
b1 0
b1001000111 1
#11580
b0 0
#11590
b1 0
b1001001000 1
#11600
b0 0
#11610
b1 0
b1001001001 1
#11620
b0 0
#11630
b1 0
b1001001010 1
#11640
b0 0
#11650
b1 0
b1001001011 1
#11660
b0 0
#11670
b1 0
b1001001100 1
#11680
b0 0
#11690
b1 0
b1001001101 1
#11700
b0 0
#11710
b1 0
b1001001110 1
#11720
b0 0
#11730
b1 0
b1001001111 1
#11740
b0 0
#11750
b1 0
b1001010000 1
#11760
b0 0
#11770
b1 0
b1001010001 1
#11780
b0 0
#11790
b1 0
b1001010010 1
#11800
b0 0
#11810
b1 0
b1001010011 1
#11820
b0 0
#11830
b1 0
b1001010100 1
#11840
b0 0
#11850
b1 0
b1001010101 1
#11860
b0 0
#11870
b1 0
b1001010110 1
#11880
b0 0
#11890
b1 0
b1001010111 1
#11900
b0 0
#11910
b1 0
b1001011000 1
#11920
b0 0
#11930
b1 0
b1001011001 1
#11940
b0 0
#11950
b1 0
b1001011010 1
#11960
b0 0
